\version "2.19.49"

\header {
 mutopiatitle = "Komm, liebe Zither, komm"
 mutopiacomposer = "MozartWA"
 mutopiapoet = "Anonymous"
 mutopiaopus = "KV 351"
 mutopiainstrument = "Voice and Mandolin"
 instrument = \Instrument
 date = "1781/Mar"
 source = "Neue Mozartausgabe"
 style = "Classical"
 license = "Public Domain"
 maintainer = "Erik Sandberg"
 maintainerEmail = "ersa9195@student.uu.se"
 title = "Komm, liebe Zither, komm"
 subtitle = "Lied for one voice with mandolin accompaniment"
 composer = "W. A. Mozart (1756-1791)"
 opus = "KV 351"

 footer = "Mutopia-2013/03/22-312"
 copyright = \markup { \vspace #1.8 \sans \abs-fontsize #7.5 \wordwrap {Sheet music in \with-url \clairnoteTypeUrl { \clairnoteTypeName music notation}  published by Paul Morris using \with-url #"http://www.lilypond.org" {LilyPond.} Original typesetting by \maintainer for the \with-url #"http://www.mutopiaproject.org" {Mutopia Project.} Placed in the \with-url #"http://creativecommons.org/publicdomain/zero/1.0/" {public domain} by the typesetter. Free to distribute, modify, and perform.}}
 tagline = ##f
}


