\version "2.19.49"
% clairnote-type = sn
\include "clairnote.ly"

tsfooter = \markup {
\column {
  \line {"Arranged by:  Nagai, Iwai and Obata, Kenhachiro"}
  \line {"Source:  Seiyo gakufu Nihon zokkyokushu,  pub. Miki Shoten, Osaka, 1895."}
  \line {"English title:  \"A Collection of Japanese Popular Music.\""}
  \line {"Copyright Public Domain  Typeset by Tom Potter 2007"}
  \line {"http://www.daisyfield.com/music/"}
}
}

\paper {
  top-margin = 2 \cm
  bottom-margin = 2 \cm
%  oddFooterMarkup = \tsfooter
}


\header {
mutopiatitle = ""    %  if not set taken from title field
mutopiacomposer = "Traditional"
mutopiapoet = ""    %  
mutopiaopus = ""    %  
mutopiainstrument = "Koto"
date = ""    %  optional - date piece composed
source = "Nagai, Iwai and Obata, Kenhachiro, \"Seiyo gakufu Nihon zokkyokushu\", pub. Miki Shoten, Osaka, 1895.  English title, \"A Collection of Japanese Popular Music.\" "
style = "Folk"
license = "Public Domain"
maintainer = "patrick stanistreet"
maintainerEmail = "haematopus@gmail.com"
maintainerWeb = "http://www.daisyfield.com/music/"
moreInfo = "Typeset by Tom Potter, 2007."  

title = "Waga-Koiwa"
subtitle = "  "      %
composer = "Arr. Y. Nagai, K. Obata"

 footer = "Mutopia-2014/07/27-1973"
 copyright = \markup { \vspace #1.8 \sans \abs-fontsize #7.5 \wordwrap {Sheet music in \with-url \clairnoteTypeUrl { \clairnoteTypeName music notation}  published by Paul Morris using \with-url #"http://www.lilypond.org" {LilyPond.} Original typesetting by \maintainer for the \with-url #"http://www.mutopiaproject.org" {Mutopia Project.} Placed in the \with-url #"http://creativecommons.org/publicdomain/zero/1.0/" {public domain} by the typesetter. Free to distribute, modify, and perform.}}
 tagline = ##f
}

kotoOne =  {
%    \clef "treble" \key c \major \time 4/4 
% 1
    e''2 \f c''4 ( b'4 ) | 
%    e''2 -\markup{ \bold {Allegro moderato} } \f c''4 ( b'4 ) | 
% 2
    a'4 f'4 a'4 e'8. [ c''16 ] | 
% 3
    c''4 ( c''4 ) b'8. [ a'16 ] f'8 [ a'8 ] | 
% 4
    e'4 e'8. [ c'16 ] b4 b'8. [ d''16 ] | 
% 5
    e''4 e'4  <e' e''>2 | 
% 6
    r4 e''4 e''2 | 
% 7
    e'4  e''4 e''8 [ d''8 b'8 d''8 ] | 
% 8
    e''4 ( f''4. ) f''8 ( e''4 ) | 
% 9
    d''8 [ e''8 d''8 b'8 ] d''4 e''4 | 
\barNumberCheck #10
    f''2 e''4 ( c''8 ) [ c''8 ] | 
% 11
    e''8 [ f''8 e''8 c''8 ] b'8 [ c''8 a'8 f'8 ] | 
% 12
    a'4 b'4 e'4  c''8 [ c''8 ] | 
% 13
    c''4 b'4 c'4 e'8 [ e'8 ] | 
% 14
    c'8 [ b8 a'8 b'8 ] c''4 b'8 [ c''8 ] | 
% 15
    a'4 f'4 e'4 a'8. [ f'16 ] | 
% 16
    f'8 [ f'8 ] e'8  [ b'16 b'16 ] b'8 [ b'8 e'8 c'8 ] | 
% 17
    e'8 [ c'8 ] b4 e'8 [ d'8 ] d'4 ~ | 
% 18
    d'4 e'4 f'4 d'4 | 
% 19
    b4 r4 e'4 c'8 [ c'8 ] | 
\barNumberCheck #20
    r8 a'8 [ b'8 b'8 ] r8 b'8 [ r8 c''8 ] | 
% 21
    b'4 e'4 <b b'>4 r4 
\bar "|."
}


% The score definition
\score  {
\new Staff <<
    \time 4/4 
    \clef "treble"
    \key c \major
    \tempo "Allegro moderato"  4 = 120
    \set Staff.midiInstrument = "koto"
    \kotoOne
>>

\layout  { }
\midi  { }
}
