#(set-global-staff-size 15.5) 

\version "2.19.49" 
% clairnote-type = sn
\include "clairnote.ly"

global = { \key f \major \time 6/8 \tempo "Hurtig" } 

SMaedchenpreis = \relative f' { 
\revert Rest.direction 
\partial 8 
c8\f f4 f8 a4 a8 c4. c8 r 
c8\p c4 c8 d4 d8 c4.( a8) r 
c,8\f f4 f8 a4 a8 c4. c8 r 
c8\p c4 c8 d4 d8 c4.~ c8 r 
c8\f f4 f8 e4 d8 c4. a8 r 
a8 c4\dim c8 d4 d8 c4. b4 
b8\p a4 a8 g4 g8 f4.~ f8 r 
\bar "|." 
} 

AMaedchenpreis = \relative f' { 
\partial 8 
c8 f4 f8 a4 a8 c4. c8 s 
g8 f4 f8 f4 f8 f4.~ f8 s 
c8 f4 f8 a4 a8 c4. c8 s 
e,8 f4 e8 d4 f8 e4.~ e8 s 
e8 f4 f8 f4 f8 f4. f8 s 
f8 a4 g8 f4 f8 e4. f4 
g8 g4 f8 f8[ d] e c4.~ c8 s 
\bar "|." 
} 

TMaedchenpreis = \relative f { 
\partial 8 
c8 f4 f8 a4 a8 c4. c8 s 
b8 a4 a8 a4 b8 a4.( c8) s 
c,8 f4 f8 a4 a8 c4. c8 s 
c8 c4 c8 c8[ a] b g4.~ g8 s 
c8 c4 c8 c4 bes8 a4. c8 s 
c8 c4 c8 c8[ a] b g4. f4 
c'8 c4 c8 d4 bes8 a4.~ a8 s 
\bar "|." 
} 

BMaedchenpreis = \relative f { 
\revert Rest.direction 
\partial 8 
c8\f f4 f8 a4 a8 c4. c8 r 
e,8\p f4 e8 d4 bes8 f'4.~ f8 r 
c8\f f4 f8 a4 a8 c4. c8 r 
b8\p a4 g8 f4 g8 c,4.~ c8 r 
b!8\f a4 a8 bes4 d8 f4. f8 r 
f8 f4\dim e8 d4 g,8 c4. d4 
e8\p f4 a,8 bes4 c8 f4.~ f8 r 
\bar "|." 
} 


LMaedchenpreisA = \lyricmode { 
\set stanza = "1." 
Ich spring an die -- sem Rin -- ge 
aufs bes -- te so ich kann, __ 
von hüb -- schen Mägd -- lein sin -- ge, 
als ichs ge -- ler -- net han. __ 
Ich ritt durch frem -- de Lan -- de, 
da sah ich man -- cher -- han -- de, 
da ich die Mägd -- lein fand. __ 
} 

LMaedchenpreisB = \lyricmode { 
\set stanza = "2." 
Die Mäg -- de -- lein von Fran -- ken, 
die seh ich all -- zeit gern, __ 
nach ihn stehn mein Ge -- dan -- ken, 
sie ge -- ben sü -- ßen Kern, __ 
sie sind die feins -- ten Dir -- nen. 
Wollt Gott, ich sollt ihn zwir -- nen, 
das Spin -- nen wollt ich lern. __ 
} 

LMaedchenpreisC = \lyricmode { 
\set stanza = "3." 
Die Mäg -- de -- lein von Schwa -- ben, 
die ha -- ben gol -- den Haar, __ 
sie dür -- fens keck -- lich wa -- gen, 
zu spin -- nen son -- der Lehr. __ 
Wer ihn den Flachs will schwin -- gen, 
der darf nicht sein ge -- rin -- ge; 
das sag ich euch für -- wahr. __ 
} 

LMaedchenpreisD = \lyricmode { 
\set stanza = "4." 
Die Mäg -- de -- lein vom Rhei -- ne, 
die lob ich oft und dick; __ 
sie sind so hübsch un fei -- ne 
und wer -- fen freund -- lich Blick, __ 
sie kön -- nen Sei -- den spin -- nen, 
die neu -- sten Lied -- lein sin -- gen, 
sie sind der Lieb ein Strick. __ 
} 

LMaedchenpreisE = \lyricmode { 
\set stanza = "5." 
Die Mäg -- de -- lein ho -- fie -- ren 
soll man, so lang man mag; __ 
das Al -- ter kommt doch schie -- re, 
kommt nä -- her je -- den Tag. __ 
Ich bin nun wor -- den al -- te, 
muß mich zum Wei -- ne hal -- ten, 
so lang als ichs ver -- mag. __ 
} 

%--------------------

\header { 
 kaisernumber = "290" 
 comment = "Könnte auch in G dur gesungen werden" 
 footnote = "" 
 
 title = "Mädchenpreis" 
 subtitle = "" 
 composer = "Melodie aus dem Lochheimer Liederbuch, 1460, " 
 opus = "" 
 arranger = "Engelbert Humperdinck (1854–1921)"
 poet = "Volkslied" 
 
 mutopiatitle = "Mädchenpreis" 
 mutopiacomposer = "HumperdinckE"
 mutopiapoet = "Traditional" 
 mutopiaopus = "" 
 mutopiainstrument = "Choir (SATB)" 
 date = "1910s" 
 source = "Leipzig : C. F. Peters, 1915" 
 style = "Romantic" 
 license = "Creative Commons Attribution 4.0" 
 maintainer = "Klaus Rettinghaus" 
 lastupdated = "2014/March/01" 
 
 footer = "Mutopia-2014/03/23-628"
 copyright = \markup { \vspace #1.8 \sans \abs-fontsize #7.5 \wordwrap {Sheet music in \with-url \clairnoteTypeUrl { \clairnoteTypeName music notation}  published by Paul Morris using \with-url #"http://www.lilypond.org" {LilyPond.} Original typesetting by \maintainer for the \with-url #"http://www.mutopiaproject.org" {Mutopia Project.} Licensed under \with-url #"http://creativecommons.org/licenses/by/4.0/" {Creative Commons Attribution 4.0.} Free to distribute, modify, and perform.}}
 tagline = ##f
} 

\score {
{
\context ChoirStaff 
	<< 
	\context Staff = women 
	<< 
	\set Staff.midiInstrument = "voice oohs" 
			\clef "G" 
			\context Voice = Sopran { \voiceOne 
				<< 
				\autoBeamOff 
				\dynamicUp 
%				\transpose f g 
				{ \global \SMaedchenpreis } 
				>> } 
			\context Voice = Alt { \voiceTwo 
 				<< 
				\autoBeamOff 
				\dynamicDown 
%				\transpose f g 
				{ \global \AMaedchenpreis } 
				>> } 
			>> 
	\context Lyrics = verseone 
	\context Lyrics = versetwo 
	\context Lyrics = versethree 
	\context Lyrics = versefour 
	\context Lyrics = versefive 
	\context Staff = men 
	<< 
	\set Staff.midiInstrument = "voice oohs" 
			\clef "F" 
			\context Voice = Tenor { \voiceOne 
				<< 
				\autoBeamOff 
				\dynamicUp 
%				\transpose f g 
				{ \global \TMaedchenpreis } 
				>> } 
			\context Voice = Bass { \voiceTwo 
				<< 
				\autoBeamOff 
				\dynamicDown 
%				\transpose f g 
				{ \global \BMaedchenpreis } 
				>> } 
		>> 
	\context Lyrics = verseone \lyricsto Sopran \LMaedchenpreisA 
	\context Lyrics = versetwo \lyricsto Sopran \LMaedchenpreisB 
	\context Lyrics = versethree \lyricsto Sopran \LMaedchenpreisC 
	\context Lyrics = versefour \lyricsto Sopran \LMaedchenpreisD 
	\context Lyrics = versefive \lyricsto Sopran \LMaedchenpreisE 
	>> 
}

\layout {
indent = 0.0\cm
\context {\Score 
\remove "Bar_number_engraver"
\override DynamicTextSpanner.style = #'none 
\override BreathingSign.text = #(make-musicglyph-markup "scripts.rvarcomma") 
}
}

\midi {
\tempo 4.=92
}

}
