\version "2.19.49"
% clairnote-type = sn
\include "clairnote.ly"
% $Revision: 1.2 $

\header {
     title = "28 melodische Übungsstücke"
     subtitle = "25."
     composer = "Anton Diabelli"
     opus = "Op 149"

     mutopiatitle = "28 melodische Übungsstücke (No. 25)"
     mutopiacomposer = "DiabelliA"
     mutopiaopus = "Op. 149"
     mutopiainstrument = "Piano Duet"
     source = "Unknown"
     style = "Classical"
     license = "Creative Commons Attribution-ShareAlike 3.0"
     maintainer = "Alberto Simões"
     maintainerEmail = "ambs@cpan.org"
     maintainerWeb = "http://alfarrabio.di.uminho.pt/~albie"

 footer = "Mutopia-2013/01/06-558"
 copyright = \markup { \vspace #1.8 \sans \abs-fontsize #7.5 \wordwrap {Sheet music in \with-url \clairnoteTypeUrl { \clairnoteTypeName music notation}  published by Paul Morris using \with-url #"http://www.lilypond.org" {LilyPond.} Original typesetting by \maintainer for the \with-url #"http://www.mutopiaproject.org" {Mutopia Project.} Licensed under \with-url #"http://creativecommons.org/licenses/by-sa/3.0/" {Creative Commons Attribution-ShareAlike 3.0} Free to distribute, modify, and perform.}}
 tagline = ##f
}


\paper {
  % add space between composer and the first staff
  markup-system-spacing.padding = #4
}
\layout {
  \context {
    \Score
    % add space between staves in piano staff
    \override StaffGrouper.staff-staff-spacing.padding = #5
  }
}


primoDynamics =  {
     \override DynamicTextSpanner.style = #'none
     s1\p s1 s4 s4 s8 s8\< s8 s8\! s1\f
     s1\p s4 \once\crescTextCresc s4\< s2 s1\f s1
     s1\f s1 s1 s1
     s1\p s8\< s8 s2 s8 s8\! s1\f s1
}

primoUp =  {
     \time 4/4
     \clef treble
     \key c \major
     \relative c''' {
         \override Score.OttavaBracket.padding = #2
	\ottava #1
	\accidentalStyle modern
	\set fingeringOrientations = #'(left)
	\repeat volta 2 {
	    c16(-3 d b c) a8-. r c16(-3 d b c) a8-. r
	    d16(-4 e c d) b8-. r d16(-4 e c d) b8-. r
	    c16(-3 e b-2 e a,-1 e' b-2 e) c(-3 e b-2 e c-3 e a,-1 e')
	    b(-2 c d c b-2 c d c) b(-2 c d c e-5 d c b)

	    c16(-3 d b c) a8-. r c16( d b c) a8-. r
	    d16(-4 e c d) b8-. r d16( e c d) b8-. r
	    e16(-5 d c d c-3 d e c) d(-4 c b c b-2 c d b)
	    c(-3 d c b c-3 e-5 c e) c4-- r
	}
	\repeat volta 2 {
	    <d-4 e-5>8-. <c e>-. <b e>-. <c e>-. <d e>-. <c e>-. <d e>-. <b-2 e-5>-.
	    <c-3 e-5>-. <b e>-. <a e'>-. <b e>-. <c e>-. <b e>-. <c e>-. <a-1 e'-1>-.
	    <b-2 e-5>-. <d e>-. <c e>-. <a-1 e'-5>-. <b e>-. <d e>-. <c e>-. <a-1 e'-5>-.
	    <b-2 e-5>-. <c e>-. <b e>-. <c e>-. <b e>-. b16(-2 c e-5 d c b)

	    c16(-3 d b c) a8-. r c16( d b c) a8-. r
	    d16(-4 e c d) b8-. r d16( e c d) b8-. r
	    c16(-3 e d c b-2 d c b a-1 c b a b-2 e-5 b e
	    a,-1 e'-5 c-3 b-2 a-1 e' c b a4)-- r
	}
     }
}

primoDown =  {
     \time 4/4
     \clef treble
     \key c \major
     \relative c'' {
	\accidentalStyle modern
	\set fingeringOrientations = #'(down)
	\repeat volta 2 {
	    c8[-3 b-. a]-. r c[-. b a]-. r
	    d[-2 c-. b]-. r d[-. c-. b]-. r
	    c[-3-. b-. a-. b]-. c[-. b-. c-.-3 a]-.-5
	    b16(-4 c d c b-4 c d c) b8-4 r r4

	    c8[-3 b-. a]-. r c[-. b a]-. r
	    d[-2 c-. b]-. r d[-. c-. b]-. r
	    <c-3 e-1> r <c e> r <b-4 d-2> r <b d> r
	    <c-3 e-1> r <c e> r <c e>4-- r
	}
	\repeat volta 2 {
	    d16(-2 e-1 c-3 e b-4 e c-3 e d-2 e c-3 e d-2 e b-4 e)
	    c(-3 e b-4 e a,-4 e' b-4 e c-3 e b-4 e c-3 e a,-5 e')
	    b(-4 e d-2 e c-3 e a,-5 e') b(-4 e d-2 e c-3 e a,-5 e')
	    b(-4 e c-3 e b-4 e c-3 e) b8-4-. r r4

	    c8[-3 b-. a]-. r c[-. b a]-. r
	    d[-2 c-. b]-. r d[-. c-. b]-. r
	    <c-3 e-1>8 r <b-4 d-2> r <a-5 c-3> r <b d> r
	    <a-5 c-3> r <a c> r <a c>4-- r
	}
     }
}

secondoDynamics =  {
     \override DynamicTextSpanner.style = #'none
     s1\p s1 s8\< s4 s4 s4 s8\! s1\f
     s1\p s4 s8 \once\crescTextCresc s2\< s8 s1\f s1
     s1\f s1 s1 s1
     s1\p s8\< s4 s4 s4 s8\! s1\f s1
}

secondoUp =  {
     \time 4/4
     \clef treble
     \key c \major
     \relative c' {
	\accidentalStyle modern
	\set fingeringOrientations = #'(left)
	\repeat volta 2 {
	    e8[-3-. d-2-. c]-1-. r e[-. d-. c]-. r
	    b[-4-. a-3-. gis]-.-2 r b[-. a-. gis]-. r
	    e'[-3-. d-. c-. d]-. e[-. d-. e-. c]-.
	    <gis-2 b-3 e-5>4 <gis b e> <gis b e> r

	    e'8[-3-. d-. c]-. r e[-. d-. c]-. r
	    f[-4-. e-. d]-. r f[-. e-. d]-. r
	    g16(-5 f e f e f g e) f(-4 e d e d e f d)
	    e(-3 f e d e g e g) e4-- r
	}
	\repeat volta 2 {
	    b8[-4-. a-. gis-. a]-. b[-. a-. b-. gis]-.-2
	    e'[-5-. d-. c-. d]-. e[-. d-. e-5-. c]-5-.
	    <gis-2 e'-5>[-. b-3-. <a-1 e'-5>-. c]-4-. <gis e'>[-. b-. <a e'>-. c]-.
             <gis-2 b-3 e-5>[-. <a-1 c-4 e-5>-. <gis b e>-. <a c e>]-. <gis b e>8 r r4

             e'8[-3-. d-. c]-. r e[-. d-. c]-. r
             b[-4-. a-. gis]-. r b[-. a-. gis]-. r
             r <a c-3 e-5> r <a b-2 f'-5> r <a c-3 e-5> r <gis-2 d'-4 e-5>
	    <a-1 c-3 e-5> r <a c e> r <a c e>4-- r
	}
     }
}

secondoDown =  {
     \time 4/4
     \clef bass
     \key c \major
     \relative c {
	\accidentalStyle modern
	\set fingeringOrientations = #'(left)
	\repeat volta 2 {
	    a4-3 r8 e'8-. a,4 r8 e'-.
	    e,4 r8 e'-. e,4 r8 e'-.
	    << { a,8 e' e e a, e' e e } \\ { a,2-3 a } >>
	    e8[ e' e, e'] e,4 r

	    a4-5 r8 e'8-2-. a,4 r8 e'8-.
	    g,4-5 r8 g'8-1-. g,4 r8 g'8-.
	    c,8[-3-. g'-. c,-. g']-. g,[-. g'-. g,-. g']-.
	    c,[-3-. g'-. c,-. g']-. c,4-- r
         }
	\repeat volta 2 {
	    << { e,8 e' e e e, e' e e } \\ { e,2 e } >>
	    << { a8 e' e e a, e' e e } \\ { a,2 a } >>
	    e8[ e' a,-3 e']	    e,8[ e' a,-3 e']
	    <e, e'>8[-. <a-3 e'>-. <e e'>-. <a e'>]-.
             <e e'>8 r r4

             a4-3 r8 e'8-. a,4 r8 e'-.
             e,4 r8 e'-. e,4 r8 e'-.
             a,-4 r d-2 r e r e, r
             a[-3-. e'-. a,-. e']-. a,4-- r
	}
     }
}

\score{
     \context PianoStaff  <<
	\set PianoStaff.instrumentName = "Secondo "
	\context Staff = "up"   \secondoUp
	\context Dynamics = "dynamics" \secondoDynamics
	\context Staff = "down" \secondoDown
      >>
     \layout { }
     \header { piece = "Allegro." }
}


\score{
     \context PianoStaff <<
	\set PianoStaff.instrumentName = "Primo "
	\context Staff = "up"   \primoUp
	\context Dynamics = "dynamics" \primoDynamics
	\context Staff = "down" \primoDown
      >>
     \layout { }
     \header { piece = "Allegro."}
}


\score{
     \context PianoStaff  <<
	\context Staff = "up"   <<
	    \applyMusic #unfold-repeats \primoUp
	    \applyMusic #unfold-repeats \secondoUp
	>>
	\context Staff = "down" <<
	    \applyMusic #unfold-repeats \primoDown
	    \applyMusic #unfold-repeats \secondoDown
	>>
      >>
     \midi {
       \tempo 4 = 80
     }
}
