\version "2.19.49"
% clairnote-type = sn
\include "clairnote.ly"
\language "english"
\include "shape-tie-column.ily"

\header {
  title        = "Les Trois Valses Distinguées du Précieux Dégoûté"
  subtitle     = "II. Son Binocle"
  composer     = "Erik Satie (1866-1925)"
  dedication   = "à Mademoiselle Linette CHALUPT"
  style        = "Avant-garde"
  license      = "Creative Commons Attribution-ShareAlike 4.0"
  enteredby    = "Knute Snortum"
  lastupdated  = "2015-Jun-19"
  date         = "1914"
  source       = "Paris: Rouart, Lerolle & Cie., 1916. Plate R.L. 10,166 & Cie."

  mutopiatitle       = "Son Binocle"
  mutopiacomposer    = "SatieE"
  mutopiainstrument  = "Piano"
  mutopiastyle       = "Modern"
  maintainer         = "Knute Snortum"
  maintainerEmail    = "knute (at) snortum (dot) net"
  maintainerWeb      = "http://www.musicwithknute.com/"

 footer = "Mutopia-2015/06/22-2020"
 copyright = \markup { \vspace #1.8 \sans \abs-fontsize #7.5 \wordwrap {Sheet music in \with-url \clairnoteTypeUrl { \clairnoteTypeName music notation}  published by Paul Morris using \with-url #"http://www.lilypond.org" {LilyPond.} Original typesetting by \maintainer for the \with-url #"http://www.mutopiaproject.org" {Mutopia Project.} Licensed under \with-url #"http://creativecommons.org/licenses/by-sa/4.0/" {Creative Commons Attribution-ShareAlike 4.0} Free to distribute, modify, and perform.}}
 tagline = ##f
}

% ------------------------------
% --- Changes from the score ---
% ------------------------------

% Bar 31: rallentir s/b ralentir

% ----------------
% --- Preamble ---
% ----------------

\markup {
  \column {
    \line { \hspace #32 Nos vieilles moeurs intèrdisaient au jeune homme }
    \line { \hspace #30 pubère de se montrer nu dans le bain, et la pudeur }
    \line { \hspace #30 jetait ainsi de profondes racines dans les ames. }
    \line { \hspace #28 "(CICERON: \"De la République\" traduction Victor POUPIN)." } 
    \line { \null }
  }
}

% -------------------
% --- Definitions ---
% -------------------

forceHShift = \once \override NoteColumn.force-hshift = 0.25
tweakPliez = \once \override TextScript.extra-offset = #'(0 . -5.1) 
tweakP = \once \override DynamicText.extra-offset = #'(-1.5 . -6) 
tweakPTwo = \once \override DynamicText.extra-offset = #'(-1 . -5)
tweakPp = \once \override DynamicText.extra-offset = #'(0 . -5)
tweakAmi = \once \override TextScript.extra-offset = #'(0 . 0)
tweakRal = \once \override TextScript.extra-offset = #'(-1 . -4)
shapeOne = { \shape #'((0 . 0) (0 . 1) (0 . 4) (0 . 4)) Slur }
shapeTwo = \shapeTieColumn #' (
             (( (2 . 0.25) (1.25 . 0.5) (0.5 . 0.5) (0 . 0.25) ))
           )

% --- Text
nettoie = \markup { \upright "Il le nettoie tous les jours." }
binocole = \markup { \upright "C'est un binocle d'argent avec des verres en or fumé." }
dame = \markup { \upright "Il lui été donné par une belle Dame" }
beaux = \markup { \upright "Se sont de beaux souvenirs! Mais...:" }
ami = \markup { \upright "Une grande tristesse règne sur notre ami:" }
etui = \markup { \upright "Il a perdu l'étui de ce binocle!" }

% --- Musical terms
lent = \markup { \bold "Très lent, s'il vous plait" }
pliez = "pliez doucement"
changez = "Ne changez pas de physionomie"
pale = "devenez pâle"
creux = "dans le creux de l'estomac."
ral = "ralentir et diminuer"
mg = "m.g."

% -------------
% --- Music ---
% -------------

highVoice = \relative {
  \partial 4 d''4 -\lent (
  d2 b4 ~ |
  b2 a4 |
  b2 a4 |
  b2 a4 |
  b4 c d |
  b4 c d |
  b4 c d |
  b2 b4 |
  
  \barNumberCheck 9
  e2 b4 ~ |
  b2 a4 |
  gs2 fs4 |
  gs2 fs4 |
  gs4 b2 |
  gs4 b2 |
  gs4 b2 |
  gs4 b2 |
  
  \barNumberCheck 17
  c4 a bf |
  c4 d e |
  c2 a4 |
  c2 ) r4 |
  r4 b,? ( cs |
  e2 cs4 |
  e2 cs4 |
  e2 ) r4 |
  
  \barNumberCheck 25
  r4 r e ( |
  d4 g e |
  d4 g e |
  d2 ) \shapeOne d'4 ( |
  d2 b4 ~ |
  b2 a4 |
  b2 a4 |
  b2 a4 |
  \forceHShift b2. _~ |
  b2 ) s4 |
}

upperMiddle = \relative {
  \partial 4 r4
  g4 <d' fs>2 |
  c4 <d g>2 |
  g,4 <d' fs>2 |
  c4 <d g>2 |
  g,4 <d' fs>2 |
  c4 <d g>2 |
  g,4 <d' fs>2 |
  c4 <d g>2 |
  
  \barNumberCheck 9
  s2. * 8 |
  
  \barNumberCheck 17
  s2. * 8 |
  
  \barNumberCheck 25
  s2. * 4 |
  g,4 <d' fs>2 |
  c4 <d g>2 |
  g,4 <d' fs>2 |
  c4 <d g>2 |
  \tag #'written { <fs'~ a~ cs^~ fs^~>2. \shapeTwo |
                   q2 s4 | }
  \tag #'played { <fs' a cs fs>2. ~ |
                  q2 s4 | }
}

lowerMiddle = \relative {
  % unused
}

lowVoice = \relative {
  \partial 4 s4
  s2. * 8 |
  
  \barNumberCheck 9
  e4 <b' ds>2 |
  a4 <b e>2 |
  e,4 <b' ds>2 |
  a4 <b e>2 |
  e,4 <b' ds>2 |
  a4 <b e>2 |
  e,4 <b' ds>2 |
  a4 <b e>2 |
  
  \barNumberCheck 17
  f?4 <c' e>2 |
  bf4 <c f>2 |
  f,4 <c' e>2 |
  bf4 <c f>2 |
  a,4 <e' gs>2 |
  d4 <e a>2 |
  a,4 <e' gs>2 |
  d4 <e a>2 |
  
  \barNumberCheck 25
  f,?4 <c'? e>2 |
  bf4 <c f>2 |
  f,4 <c' e>2 |
  bf4 <c f>2 |
  s2. * 5 |
  s2. |
}

% --- Dynamics, text, and musical terms

dynamicsHigh = {
  \partial 4 \tweakP s4 \p 
  s2. |
  \tweakPliez s2. -\pliez |
  s2. * 6 |
  
  \barNumberCheck 9
  s2. -\binocole |
  s2. * 7 |
  
  \barNumberCheck 17
  s2. -\dame |
  s2. * 3 |
  s4 s -\beaux s |
  s2. * 3 |
  
  \barNumberCheck 25
  \tweakAmi s2 -\ami \tweakPp s4 \pp 
  s2. * 2 |
  s2 \tweakPTwo s4 \p 
  s2. * 2 |
  \tweakRal s2. -\ral
  s2. |
  s2. -\mg |
  s2. |
}

dynamics = {
  \partial 4 s4 |
  s4 s -\nettoie s |
  s2. * 7 |
  
  \barNumberCheck 9
  s2. -\changez |
  s2. * 7 |
  
  \barNumberCheck 17
  s2. -\pale |
  s2. * 4 |
  s2. -\creux |
  s2. * 2 |
  
  \barNumberCheck 25
  s2. * 4 |
  s4 s -\etui s |
}

% -----------------------
% --- Layout and MIDI ---
% -----------------------

global = {
  \key c \major
  \time 3/4
}

upper = {
  \global
  \clef treble
  <<
    \new Voice { \voiceOne \highVoice }
    \new Voice { \voiceTwo \upperMiddle }
  >>
  \pageBreak
}

lower = {
  \global
  \clef bass
  <<
    \new Voice { \voiceThree \lowerMiddle }
    \new Voice { \voiceFour \lowVoice }
  >>
  \pageBreak
}

\paper {
  top-margin = 8\mm                              %-minimum top-margin: 8mm
  top-markup-spacing.basic-distance = #5         %-dist. from bottom of top margin to the first markup/title
  markup-system-spacing.basic-distance = #6      %-dist. from header/title to first system
  top-system-spacing.basic-distance = #12        %-dist. from top margin to system in pages with no titles
  last-bottom-spacing.basic-distance = #11       %-pads music from copyright block
  
  % --- Set these to false after all editing is finished
  ragged-bottom = ##f
  ragged-last-bottom = ##f
  ragged-right = ##f
}

\score {
  \keepWithTag #'written
  \new PianoStaff <<
    \new Dynamics { \global \dynamicsHigh }
    \new Staff = "upper" \upper
    \new Dynamics { \global \dynamics }
    \new Staff = "lower" \lower
  >>
  \layout { 
    \context {
      \Score
      \hide BarLine
      \hide SpanBar
      \remove "Bar_number_engraver"
    }
    \context {
      \Staff
      \remove "Time_signature_engraver"
    }
  } 
}

\include "articulate.ly"

\score {
  \keepWithTag #'played
  \articulate <<
    \new PianoStaff <<
      \new Staff ="upper" \upper
      \new Staff = "lower" \lower
    >>
  >>
  \midi { 
    \tempo 4 = 120
  }
}

% --------------------
% --- Translations ---
% --------------------

\markup {
  \column {
    \line { Translations by \with-url #"http://translate.google.com" { "Google Translate" } and some research }
    \line { \null }
    \line { Title: }
    \line { \hspace #2 \bold { Les Trois Valses Distinguées du Précieux Dégoûté } - Three Distinguished Waltzes of a Precious Fop }
    \line { \null }
    \line { Subtitle: }
    \line { \hspace #2 \bold { Son Binocle } - His Spectacles }
    \line { \null }
    \line { Preamble: }
    \line { \hspace #2 Our old mores forbade a young man  }
    \line { \hspace #2 to appear naked in the bath, and modesty }
    \line { \hspace #2 thus cast deep roots in the souls. }
    \line { \hspace #2 (Cicero: "The Republic" Victor POUPIN translation). }
    \line { \null }
    \line { Text: }
    \line { \hspace #2 \bold \nettoie - He cleans it every day. }
    \line { \hspace #2 \bold \binocole - It is silver spectacles with gold smoked lenses. }
    \line { \hspace #2 \bold \dame - It was given to him by a beautiful lady. }
    \line { \hspace #2 \bold \beaux - Such beautiful memories!  But...: }
    \line { \hspace #2 \bold \ami - A great sadness reigns over our friend: }
    \line { \hspace #2 \bold \etui - He has lost his spectacle case! }
    \line { \null }
    \line { Musical Terms: }
    \line { \hspace #2 \bold \lent - Very slow, please }
    \line { \hspace #2 \bold \pliez - gently fold }
    \line { \hspace #2 \bold \changez - Do not change your face }
    \line { \hspace #2 \bold \pale - become pale }
    \line { \hspace #2 \bold \creux - in the pit of the stomach. }
    \line { \hspace #2 \bold \ral - slow down and get softer }
    \line { \hspace #2 \bold \mg - left hand }
  }
}
