\version "2.19.49"
% clairnote-type = sn
\include "clairnote.ly"

\include "defs.ily"

\header {
    instrument = "Violino I."
}

\layout {
    \compressFullBarRests
}

\include "violin1-i.ily"

\score {
    \context Staff <<
	\set Staff.autoBeaming = ##f
        \set Staff.midiInstrument = #"violin"

	\time 2/2

	\violinIFirstMov
	\context Voice = "markings" { \markingsI }
    >>

    
  \midi {
    \tempo 2 = 60
    }



    \layout { }
}

\include "violin1-ii.ily"

\score {
    \context Staff <<
	\set Staff.autoBeaming = ##f
        \set Staff.midiInstrument = #"violin"

	\time 6/8

	\violinISecondMov
	\context Voice = "markings" { \markingsII }
    >>

    
  \midi {
    \tempo 4. = 30
    }



    \layout { }
}

\include "violin1-iii.ily"

\score {
    \context Staff <<
	\set Staff.autoBeaming = ##f
        \set Staff.midiInstrument = #"violin"

	\time 3/4
	\partial 16*5

	\violinIThirdMov
	\context Voice = "markings" { \markingsIII }
	\context Voice=markingsBis { \markingsIIIbis }
    >>

    
  \midi {
    \tempo 4 = 120
    }



    \layout { }
}

\include "violin1-iv.ily"

\score {
    \context Staff <<
	\set Staff.autoBeaming = ##f
        \set Staff.midiInstrument = #"violin"

	\time 2/4

	\violinIFourthMov
	\context Voice = "markings" { \markingsIV }
    >>

    
  \midi {
    \tempo 4 = 144
    }



    \layout { }
}

