\version "2.19.49"
% clairnote-type = sn
\include "clairnote.ly"

\include "defs.ily"

\header {
    instrument = "Clarinetto in B."
}

\layout {
    \compressFullBarRests
}

\include "clarinet-i.ily"

\score {
    \context Staff <<
        \override Score.BarNumber.padding = #3
	\set Staff.autoBeaming = ##f
        \set Staff.midiInstrument = #"clarinet"
	\transposition ais 

	\markingsI

	\clarinetFirstMov
    >>

    
  \midi {
    \tempo 4 = 70
    }



    \layout { }
}


\include "clarinet-ii.ily"

\score {
    \context Staff <<
        \override Score.BarNumber.padding = #3
	\set Staff.autoBeaming = ##f
        \set Staff.midiInstrument = #"clarinet"
	\transposition ais 

	\markingsII

	\clarinetSecondMov
    >>

    
  \midi {
    \tempo 4 = 120
    }



    \layout { }
}


\include "clarinet-iii.ily"

\score {
    \context Staff <<
        \override Score.BarNumber.padding = #3
	\set Staff.autoBeaming = ##f
        \set Staff.midiInstrument = #"clarinet"
	\transposition ais 

	\markingsIII

	\clarinetThirdMov
    >>

    
  \midi {
    \tempo 4 = 120
    }



    \layout { }
}
