\version "2.19.49"
% clairnote-type = sn
\include "clairnote.ly"

\include "bb_2_2_header.ly"
\include "bb_2_2_parts.ly"

\score {
  \new StaffGroup \keepWithTag #'vn \part_minuetto
  \header {
    piece = "Minuetto"
  }
  \layout { }
}
\pageBreak
\score {
  \new StaffGroup \keepWithTag #'vn \part_duetto_ii
  \header {
    piece = "Duetto II"
  }
  \layout { }
}
