\version "2.19.49"

IIBasso =  \relative c' {
  \clef "bass"
  \time 6/8
  \key g\minor

  \partial 8 r8 |
  %1 page 6
  g4 r8 fis4 r8 | g4 r8 bes a g | g f es d c bes | c4 r8 d4 r8 |
  g f es d c bes | c4 r8 d4 r8 | g,4 g'8 g,4 f'16(  es) | d4 r8 a'4 r8 |
  %9
  bes4 r8 d8 c bes | bes a g f es d | es4 r8 f4 r8 | bes a g f es d |
  es4 r8 f4 r8 | bes,4. r4 r8 | c'4 r8 a4 r8 | bes4 r8 r4 r8 |
  %17
  es,4 r8 e4 r8 | f4. es4 r8 | d4 r8 c4 r8 | bes4 r8 es4 r8 | d4 r8 c4 r8 |
  %22
  bes4 r8 es4 r8 | f4 r8 f4 r8 | bes,4 r8 es4 r8 | f4 r8 f4 r8 |
  bes,4 r8 d4 r8 | es4 r8 f4 r8 | g4 r8 d4 r8 | es4 r8 f4 r8 |
  %30
  bes,4. r4 r8 | g'8 f es d es f | es d c a bes c | bes4 d8 es4 f8 |
  g8 f es d es f | es d c a bes c | bes4 r8 f'4 r8 | bes,4 r8 r4 r8 |
  %38
  g' f es c' bes a | bes4 r8 f4 r8 | es4 r8 f4 r8 | g4 g8 g4 f8 |
  es g f e g e | f4 f8 f4 f8 | es g f e g e |
  %45 page 7
  f4 r8 f4 r8 | bes,4. bes'4 g8 | a4 fis8 g4 d8 | fis4 d8 bes' g bes |
  a fis a g d g | fis4. g | d d'8 c bes | c bes a a g f |
  %53
  bes a g g f es | c4 r8 d4 r8 | g,4. cis | d fis | g g, | c d |
  %59
  g,4 r8 g4 r8 | g4 r8 d'4 r8 | g,4 r8 g4 r8 | g4 r8 d'4 r8 | g,4. g' |
  %64
  g a | f f | f g | es c | cis d8 e fis | d e fis fis e d | g4 r8 r4 r8 |
  %71
  c,4 r8 d4 r8 | g,4. r4 r8 | c4 r8 d4 r8 | g,4. \bar "|."
}

