\version "2.19.49"

IIBasso =  \relative c {
  \clef "bass"
  \key e\minor

  e8 e e e dis dis dis dis | e e d! d c c d c | b b b b c c cis cis |
  %4
  d d dis dis e e e e | a a a a g e r4 | r8 dis  dis[ dis]  e[ g]  a[ b] |
  %7
  e, e d d c2 | b r
}
