\version "2.19.49"

IIViolinII =  \relative c'' {
  \clef "treble"
  \key e\minor
  g8 g g g r b b b | b g16 a b8 b e e a, fis | d' d d d g, g e' e |
  %4
  a, a fis' fis b, b g' g, | c c c c b b r4 | r8 fis fis fis b b c fis, |
  %7
  g g fis fis e2 | dis r2^\fermata
} 
