\version "2.19.49"

IGlobal =  {
  \time 2/4
  \repeat "volta" 2 {
    s2*54
  }
  \repeat "volta" 2 {
    s2*72 \bar "|."
  }
}

IIGlobal =  { 
  \time 4/4
  s1 * 8 \bar "|."
}

IIIGlobal =  {
  \time 3/8
  \repeat "volta" 2 {
    s4.*46
  }
  \repeat "volta" 2 {
    s4.*45 \bar "|."
  }
}


