\version "2.19.49"
% clairnote-type = sn
\include "clairnote.ly"

tsfooter = \markup {
\column {
  \line {"Arranged by:  Nagai, Iwai and Obata, Kenhachiro"}
  \line {"Source:  Seiyo gakufu Nihon zokkyokushu,  pub. Miki Shoten, Osaka, 1895."}
  \line {"English title:  \"A Collection of Japanese Popular Music.\""}
  \line {"Copyright Public Domain  Typeset by Tom Potter 2007"}
  \line {"http://www.daisyfield.com/music/"}
}
}

\paper {
  top-margin = 2 \cm
  bottom-margin = 2 \cm
%  oddFooterMarkup = \tsfooter
}


\header {
mutopiatitle = ""    %  if not set taken from title field
mutopiacomposer = "Traditional"
mutopiapoet = ""    %  
mutopiaopus = ""    %  
mutopiainstrument = "Koto"
date = ""    %  optional - date piece composed
source = "Nagai, Iwai and Obata, Kenhachiro, \"Seiyo gakufu Nihon zokkyokushu\", pub. Miki Shoten, Osaka, 1895.  English title, \"A Collection of Japanese Popular Music.\" "
style = "Folk"
license = "Public Domain"
maintainer = "patrick stanistreet"
maintainerEmail = "haematopus@gmail.com"
maintainerWeb = "http://www.daisyfield.com/music/"
moreInfo = "Typeset by Tom Potter, 2007."  

title = "Kayo-Kami"
subtitle = "  "      %
composer = "Arr. Y. Nagai, K. Obata"

 footer = "Mutopia-2014/07/27-1975"
 copyright = \markup { \vspace #1.8 \sans \abs-fontsize #7.5 \wordwrap {Sheet music in \with-url \clairnoteTypeUrl { \clairnoteTypeName music notation}  published by Paul Morris using \with-url #"http://www.lilypond.org" {LilyPond.} Original typesetting by \maintainer for the \with-url #"http://www.mutopiaproject.org" {Mutopia Project.} Placed in the \with-url #"http://creativecommons.org/publicdomain/zero/1.0/" {public domain} by the typesetter. Free to distribute, modify, and perform.}}
 tagline = ##f
}

kotoOne =  {
%    \clef "treble" \key c \major \time 4/4 | 
% 1
    <e' e''>4.  r16 a'16  b'4.. d''16
%    <e' e''>4. -\markup{ \bold {Moderato} } \ff r16 a'16 \p b'4.. d''16
    | 
% 2
    e''4 ( d''8 [ e''8 ) ] e'4. e''8 | 
% 3
    f''4 ( e''4 ) d''4. ( b'8 ) | 
% 4
    d''8 [ d''8 d''8 ] r8 e''8 [ d''8 ] r8 e''8 | 
% 5
    f''4 a''8 [ b''8 ] e''8 ( e''4 ) c''8 | 
% 6
    b'4 ( a'4 ) b'4 c''8 [ b'8 ] | 
% 7
    a'4. f'8 a'2 | 
% 8
    a'4 b'8 [ a'8 ] b8 r8 c''4 ( | 
% 9
    b'4 ) a'4 f'4 a'8 [ c''8 ] | 
\barNumberCheck #10
    b'8. ( [ a'16 ) ] f'4 e'4 e''4 | 
% 11
    c''8. [ e''16 ] b'4 a'4 b'8. [ d''16 ] | 
% 12
    e''4 e''4 e''2 | 
% 13
    a'4 b'4 d''8 [ e''8 f''8 a''8 ] | 
% 14
    e''8. ( [ c''16 ) ] b'4 a'2 | 
% 15
    f''8 [ a''8 b''8 c'''8 ] a''8 [ f''8 a''8 c'''8 ] | 
% 16
    b''8 [ a''8 ] f''4 f''8 [ e''8 e''8 c''8 ] | 
% 17
    b'8. [ a'16 ] f'8 [ a'8 ] e'4 b8 [ a'8 ] | 
% 18
    b'4 b'4 b'4 e''4 | 
% 19
    c''4 b'4  c''2 | 
\barNumberCheck #20
    r4 c''4 c''8 ( [ b'8 ) ] a'8 [ f'8 ] | 
% 21
    a'4 ( b'4 ) c''4. e''8 | 
% 22
    c''4 ( b'4 ) a'4 ( b'4 ) | 
% 23
    c''4 c''4 c''2 | 
% 24
    c''4 ( b'4. ) c''8 b'4 | 
% 25
    a'4. f'8 a'2 | 
% 26
    a'4. f'8 a'8 [ b'8 ] c''4 ( | 
% 27
    b'4 ) a'4 f'4 e'4 | 
% 28
    e''8. [ c''16 ] b'4 a'4 r4 | 
% 29
    a'8  [ b'8 ] d''4 e''8 [ b'8 a'8 f'8 ] | 
\barNumberCheck #30
    e'4 e'4 e''4 r4 | 
% 31
    e''2  f''4 ( e''4 ) | 
% 32
    r4 a''4 f''2 | 
% 33
    e''4. ( c''8 ) b'4 ( a'4 ) | 
% 34
    f'4 e'4 a'4 b'4 ( | 
% 35
    c''2 ) e''4 ( c''4 ) | 
% 36
    b'2 a'2 | 
% 37
    b'2 b'4 r4 ^\fermata 
\bar "|."
}


% The score definition
\score  {
\new Staff <<
    \time 4/4 
    \clef "treble"
    \key c \major
    \tempo  "Moderato" 4 = 120
    \set Staff.midiInstrument = "koto"
    \kotoOne
>>

\layout  { }
\midi  { }
}
