%...+....1....+....2....+....3....+....4....+....5....+....6....+....7....+....

\version "2.19.49"
% clairnote-type = sn
\include "clairnote.ly"
\language "english"

\paper {
  % --- Set these to false after all editing is finished
  ragged-bottom = ##f
  ragged-last-bottom = ##f
  ragged-right = ##f
}

\header {
  title = "Keyboard Sonata in D Major"
  composer = "Domenico Scarlatti (1685-1757)"
  opus = "K.491"
  date = ""
  style = "Baroque"

  % http://www.internetculturale.it/opencms/opencms/it/viewItemMag.jsp?case=&id=oai%3A193.206.197.121%3A18%3AVE0049%3AARM0001534
  % Source: Queen Maria Barbara manuscript (1756) at Biblioteca nazionale Marciana - Venice
  % Permission to reuse: http://www.internetculturale.it/opencms/opencms/it/main/chisiamo/uso/
  source = "Italian Digital Library: www.internetculturale.it"
  
  maintainer = "Knute Snortum"
  maintainerEmail = "knute (at) snortum (dot) net"
  license = "Creative Commons Attribution-ShareAlike 4.0"
  
  mutopiacomposer = "ScarlattiD"
  mutopiainstrument = "Piano"

 footer = "Mutopia-2015/12/24-2088"
 copyright = \markup { \vspace #1.8 \sans \abs-fontsize #7.5 \wordwrap {Sheet music in \with-url \clairnoteTypeUrl { \clairnoteTypeName music notation}  published by Paul Morris using \with-url #"http://www.lilypond.org" {LilyPond.} Original typesetting by \maintainer for the \with-url #"http://www.mutopiaproject.org" {Mutopia Project.} Licensed under \with-url #"http://creativecommons.org/licenses/by-sa/4.0/" {Creative Commons Attribution-ShareAlike 4.0} Free to distribute, modify, and perform.}}
 tagline = ##f
}

%--------Definitions

%------------Music

% --- First repeat, both hands

voltaOneUpper = \relative {
  | d''4 \prall d \prall d \prall
  | d16 e fs g a g fs e d cs b a
  | d4 \prall d \prall e \prall
  | r8 fs16 g a8 d, a' d,
  | r8 e16 fs g8 cs, g' cs,
  | <d fs>4 q <fs a>
  | <e g>4 q q
  
    \barNumberCheck 8
  | r8 <a, fs'>16. <b g'>32 <a fs'>8 <b g'> <a fs'> <g e'>
  | <fs d'>4 q <g e'>
  | r8 <a fs'>16. <b g'>32 <a fs'>8 <b g'> <a fs'> <g e'>
  | <fs d'>4 q <g e'>
  | << { fs'8 fs16. g32 a8 a g fs } \\ { a,4 a8 fs' e d } >>
  | <a e'>8 q16. q32 q8 <fs d'> <e cs'> <d d'>
  | <a' e'>8 q16. q32 q8 <fs d'> <e cs'> <d d'>
  | <a' e'>8 <fs d'> <e cs'> <d d'> <a' e'> <fs d'>
  | <e cs'>8 <d d'> <a' e'> <fs d'> <e cs'> <d d'>
  | <a' e'>2. \prall
  | R1 * 3/4 \fermataMarkup
    
    \barNumberCheck 19
  | << { \grace { e'16 f } g8 f16 e e8 e e e } \\ { c2. } >>
  | << { \acciaccatura { g'8 } f8 e16 d d8 d d e } \\ { b2 b8 cs! } >>
  | << { \acciaccatura { g'8 } f8 e16 d e8 d c b } \\ { <a d>4 c8 b a gs } >>
  | a8 \prall b c \prall d e \prall f
  | << { \grace { e16 f } g8 f16 e e8 e e e } \\ { c2. } >>
  | << { \acciaccatura { g'8 } f8 e16 d d8 d d e } \\ { b2 b8 cs! } >>
  | << { \acciaccatura { g'8 } f8 e16 d e8 d c b } \\ { <a d>4 c8 b a gs } >>
  
    \barNumberCheck 26
  | a16 a' cs,! e a, cs e, a cs, e a, a'
  | fs16 a' fs a d, fs a, d fs, a d, d'
  | cs16 a' cs, e a, cs e, a cs, e a, a'
  | fs16 d' cs b a gs32 a b a b cs b4 \prall
  | a4 r a'
  | \acciaccatura { g8 } fs4 r a
  | \acciaccatura { fs8 } e4 r a
  | r16 fs e d d cs b a  cs b a gs
  | a4 r a'
  | \acciaccatura { g8 } fs4 r a
  | \acciaccatura { fs8 } e4 r a
  | r16 fs e d d cs b a  cs b a gs
  
    \barNumberCheck 38
  | << { cs8 cs16 d e8 fs e d } \\ { a8 a16 b cs8 d cs b } >>
  | << { cs8 b16 cs d8 cs4 b8 } \\ { a8 gs16 a b8 a4 gs8 } >>
  | << { cs16 b cs d cs d e fs e d cs b } \\ { a16 gs a b a b cs d cs b a gs } >>
  | << { cs16 b cs d cs d e fs e d cs b } \\ { a16 gs a b a b cs d cs b a gs } >>
  | << { cs8 b16 cs d8 cs4 b8 } \\ { a8 gs16 a b8 a4 gs8 } >>
  | a16 a' e cs a e cs a r4
  | R1 * 3/4
}

voltaOneLower = \relative {
  | R1 * 3/4
  | d'4 \prall d \prall d \prall
  | d16 e fs g a g fs e d cs b a
  | <d, d'>4 q <fs d'>
  | <g e' d>4 q <a e'>
  | r8 fs'16 g a8 d, a' d,
  | << { r8 e16 fs g8 cs, g' cs, } \\ { a2. } >>
  
    \barNumberCheck 8
  | d,4 d d 
  | r8 <fs d'>16. <g e'>32 <fs d'>8 <g e'> <fs d'> <e cs'>
  | <d d'>4 d d
  | r8 <fs d'>16. <g e'>32 <fs d'>8 <g e'> <fs d'> <e cs'>
  | << { d'2 s4 } \\ { d,4 fs g } >>
  | <a,, a'>4 q q
  | q4 q q
  | q4 q q
  | q4 q q
  | q2.
  | R1 * 3/4 \fermataMarkup
    
    \barNumberCheck 19
  | <c c'>4 q q
  | <g' g'>4 q q
  | <d d'>4 <e e'> e
  | a4 r r
  | <c, c'>4 q q
  | <g' g'>4 q q
  | <d d'>4 e' e,
  
    \barNumberCheck 26
  | <a, a'>4 q q
  | <d d'>4 q q 
  | <a a'>4 q q
  | <d d'>4 <e e'> e
  | a16 a'' cs, e a, cs e, a cs, e a, cs
  | d16 a'' fs a d, fs a, d fs, a d, a'
  | cs,16 e' cs e a, cs e, a cs, e a, cs 
  | d,4 e e
  | a16 a'' cs, e a, cs e, a cs, e a, cs
  | d16 a'' fs a d, fs a, d fs, a d, a'
  | cs,16 e' cs e a, cs e, a cs, e a, cs 
  | d,4 e e
  
    \barNumberCheck 38
  | <a, a'>4 q <e' e'>
  | <a, a'>4 <d d'> <e e'>
  | <a, a'>4 q <e' e'>
  | <a, a'>4 q <e' e'>
  | <a, a'>4 <d d'> <e e'>
  | <a, a'>4 r a''16 e cs a
  | a,2.
}

% --- Second repeat, both hands

voltaTwoUpper = \relative {
    \barNumberCheck 45
  | r8 cs''16 d e8 a, e' a,
  | r8 b16 cs d8 gs, d' gs,
  | <a cs>4 q <cs e>
  | <b d>4 q q
  | a16 b cs d e d cs b a g! fs e
  | r8 fs'16 g a8 d, a' d,
  | r8 e16 fs g8 cs, g' cs,
  | <d fs>4 q <fs a>
  | <e g>4 q q
  | <d fs>4 q q
  | g16 fs g a b a g fs e d cs b
  | <a e'>8 q16. q32 q8 <fs d'> <e cs'> <d d'>
  | <a' e'>8 q16. q32 q8 <fs d'> <e cs'> <d d'>
  | <a' e'>8 <fs d'> <e cs'> <d d'> <a' e'> <fs d'>
  | <e cs'>8 <d d'> <a' e'> <fs d'> <e cs'> <d d'>
  | <a' e'>2. \prall
  | R1 * 3/4 \fermataMarkup 
  
    \barNumberCheck 62
    \key c \major
  | <<
      { \voiceOne c'8 bf16 a a8 a a a }
      \\
      \new Voice { \voiceTwo f4. f8 f f }
      \\
      \new Voice { \voiceTwo c2. }
    >>
  | <<
      { \voiceOne \acciaccatura { a'8 } g8 f16 e e8 fs g a }
      \\
      \new Voice { \voiceThree e4 s2 }
      \\
      \new Voice { \voiceTwo c4. d8 e fs }
    >>
  | << { bf8 a16 g a8 g f e } \\ { g8 f16 e f8 e d cs } >>
  | d8 \prall e f \prall g a \prall bf
  | <<
      { \voiceOne c8 bf16 a a8 a a a }
      \\
      \new Voice { \voiceTwo f4. f8 f f }
      \\
      \new Voice { \voiceTwo c2. }
    >>
  | <<
      { \voiceOne \acciaccatura { a'8 } g8 f16 e e8 fs g a }
      \\
      \new Voice { \voiceThree e4 s2 }
      \\
      \new Voice { \voiceTwo c4. d8 e fs }
    >>
  | << { bf8 a16 g a8 g f e } \\ { g8 f16 e f8 e d cs } >>
  
    \barNumberCheck 69
    \key d \major
  | d16 d' fs, a d, fs a, d fs, a d, d'
  | b16 d' b d g, b d, g b, d g, g'
  | fs d' fs, a d, fs a, d fs, a d, d'
  | b16 g' fs e d cs32 d e d e fs e4 \prall
  | d4 r d'
  | \acciaccatura { cs8 } b4 r d
  | \acciaccatura { b8 } a4 r d
  | r16 b a g g fs e d fs e d cs
  | d4 r d'
  | \acciaccatura { cs8 } b4 r d
  | \acciaccatura { b8 } a4 r d
  | r16 b a g g fs e d fs e d cs  
  
    \barNumberCheck 81
  | << { s8 fs16. g32 a8 b a g } \\ { d8 d16. e32 fs8 g fs e } >>
  | << { fs8 e16 fs g8 fs4 e8 } \\ { d8 cs16 d e8 d4 cs8 } >>
  | << { fs16 e fs g fs g a b a g fs e } \\ { d cs d e d e fs g fs e d cs } >>
  | << { fs16 e fs g fs g a b a g fs e } \\ { d cs d e d e fs g fs e d cs } >>
  | << { fs8 e16 fs g8 fs4 e8 } \\ { d8 cs16 d e8 d4 cs8 } >>
  | d16 d' a fs d a fs d r4
  | R1 * 3/4
}

voltaTwoLower = \relative c {
    \barNumberCheck 45
  | <a a'>4 q <cs a'>
  | <d a' b>4 q <e b'>
  | r8 cs'16 d e8 a, e' a,
  | << { r8 b16 cs d8 gs, d' gs, } \\ { e2. } >>
  | <a cs>4 q q
  | <d, d'>4 q <fs d'>
  | <g d' e>4 q <a e'>
  | r8 fs'16 g a8 d, a' d,
  | << { r8 e16 fs g8 cs, g' cs, } \\ { a2. } >>
  | d16 e fs g a g fs e d c b a
  | g4 g g
  | <a,, a'>4 q q
  | q4 q q
  | q4 q q
  | q4 q q
  | q2.
  | R1 * 3/4 \fermataMarkup  
  
    \barNumberCheck 62
    \key c \major
  | <f' c' f>2 q4
  | <c g' c>2 <c c'>4
  | <g' g'>4 a' a,
  | <d, d'>4 r r
  | <f c' f>2 q4
  | <c g' c>2 <c c'>4
  | <g' g'>4 a' a, 
  
    \barNumberCheck 69
    \key d \major
  | <d, d'>4 q q
  | <g g'>4 q q
  | <d d'>4 q q
  | <g g'> <a a'> a
  | d16 a'' fs a d, fs a, d fs, a d, d'
  | g,16 g' d g b, d g, b d, g g, g'
  | fs16 a' fs a d, fs a, d fs, a d, fs
  | g,,4 a a
  | d16 a''' fs a d, fs a, d fs, a d, d'
  | g,16 g' d g b, d g, b d, g g, g'
  | fs16 a' fs a d, fs a, d fs, a d, fs 
  | g,,4 a a
  
    \barNumberCheck 81
  | <d d'>4 q <a' a'>
  | <d, d'>4 <g g'> <a a'>
  | <d, d'>4 q <a' a'>
  | <d, d'>4 q <a' a'>
  | <d, d'>4 <g g'> <a a'>
  | <d, d'>2 d''16 a fs d
  | d,2.
}

%-------Typeset music 

global = {
  \time 3/4
  \key d \major
}

upperStaff = \relative c'' {
  \clef treble
  \global
  \tempo "Allegro"
  \repeat volta 2 { \voltaOneUpper \pageBreak }
  \repeat volta 2 { \voltaTwoUpper }
}

lowerStaff = \relative c' {
  \clef bass
  \global
  \repeat volta 2 { \voltaOneLower \pageBreak }
  \repeat volta 2 { \voltaTwoLower }
}

\score {
  \new PianoStaff <<
    \new Staff = "upper" { \upperStaff }
    \new Staff = "lower" { \lowerStaff } 
  >>
  \layout {
  }
  \midi {
    \tempo 4 = 108
  }
}
