\version "2.19.49"

IIIVla = \relative c'' {
  \clef "alto"
  \key f \major
  \time 3/8
  \set Score.skipBars = ##t
  \set Score.currentBarNumber = #196

  a8 d, a' |
  % 197
  a d, a' |
  % 198
  a4 a8 |
  % 199
  a4 a8 |
  % 200
  a4 a8 |
  % 201
  a a a |
  % 202
  a a, a' |
  % 203
  cis a cis |
  % 204
  a a, a' |
  % 205
  a a, a |
  % 206
  d4. |
  % 207
  c4. |
  % 208
  bes4. |
  % 209
  a4. |
  % 210
  a16 d d8 e |
  % 211
  a,16 d d8 e |
  % 212
  a,16 a' cis,8 cis |
  % 213
  a16 d d8 e |
  % 214
  a,16 d e8 e |
  % 215
  a,16 a' cis,8 a' |
  % 216
  f4 r8 |
  %217
  R4.*14 |
  %231
  c8 a e' |
  % 232
  c a e' |
  % 233
  f4 a8 |
  % 234
  g e4 |
  % 235
  c8 f4 |
  % 236
  g8 e4 |
  % 237
  f8 d4 |
  % 238
  e8 c4 |
  % 239
  c16 f d8 g |
  % 240
  c,16 f d8 g |
  % 241
  c, e g, |
  % 242
  a16 f' d8 g |
  % 243
  c,16 f d8 g |
  % 244
  c, e g, |
  % 245
  a4 r8 |
  % 246
  R4.*20 |
  % 266
  d4 d8 |
  % 267
  a'4 cis8 |
  % 268
  a4 a8 |
  % 269
  a4 a8 |
  % 270
  a a, a' |
  % 271
  cis a cis |
  % 272
  a a, a' |
  % 273
  a a, a |
  % 274
  a16 d d8 e |
  % 275
  a,16 d d8 e |
  % 276
  a,16 a' cis,8 cis |
  % 277
  a16 d d8 e |
  % 278
  a,16 d e8 e |
  % 279
  a,16 a' cis,8 a' |
  % 280
  d,4 r8
  % 281
  R4.*41 |
  % 322
  a16 d d8 e |
  % 323
  a,16 d d8 e |
  % 324
  a,16 a' cis,8 cis |
  % 325
  a16 d d8 e |
  % 326
  a,16 d e8 e |
  % 327
  a,16 a' cis,8 a' |
  % 328
  a,16 a' cis,8 a' |
  % 329
  a4.^\fermata \bar "|."
}
