\version "2.19.49"
% clairnote-type = sn
\include "clairnote.ly"

\include "defs.ly"

#(set-global-staff-size 18)

\header {
    title = "Die Forelle"
    subtitle = "Op. 32"
    composer = "Franz Schubert (1798-1828)"
    poet = "Christian Friedrich Daniel Schubart (1739-1791)"
    piece = "Etwas lebhaft."
        
    mutopiatitle = "Die Forelle"
    mutopiacomposer = "SchubertF"
    mutopiaopus = "D.550 (Op. 32)"
    mutopiainstrument = "Voice and Piano"
    date = "1817"
    source = "C.F. Peters (Band I)"
    style = "Classical"
    license = "Public Domain"
    maintainer = "Maurizio Tomasi"
    maintainerEmail = "zio_tom78@hotmail.com"
    maintainerWeb = "http://www.geocities.com/zio_tom78/"

 footer = "Mutopia-2013/02/21-502"
 copyright = \markup { \vspace #1.8 \sans \abs-fontsize #7.5 \wordwrap {Sheet music in \with-url \clairnoteTypeUrl { \clairnoteTypeName music notation}  published by Paul Morris using \with-url #"http://www.lilypond.org" {LilyPond.} Original typesetting by \maintainer for the \with-url #"http://www.mutopiaproject.org" {Mutopia Project.} Placed in the \with-url #"http://creativecommons.org/publicdomain/zero/1.0/" {public domain} by the typesetter. Free to distribute, modify, and perform.}}
 tagline = ##f
}

\include "melody.ly"
\include "piano.ly"
\include "lyrics.ly"

\book {
    \score {
	<<
	    \new Staff \with
	    {
		fontSize = #-2
		\override StaffSymbol.staff-space = #(magstep -2)
	    }
	    <<
		\override Staff.VerticalAxisGroup.minimum-Y-extent = #'(-2 . 2)
		\context Voice = mel {
		    \set Staff.midiInstrument = #"clarinet"
		    \set Staff.instrumentName = \markup { "Singstimme." }

		    \autoBeamOff
		    \melody
		}
		\new Lyrics \lyricsto mel { \text }
	    >>
	    
	    \new PianoStaff <<
		\set PianoStaff.midiInstrument = #"acoustic grand"
		\set PianoStaff.instrumentName = \markup { "Pianoforte." }
		\set PianoStaff.connectArpeggios = ##t
		
		\context Staff = up \upper
		\context Dynamics=dynamics \dynamics
		\context Staff = down <<
		    \clef bass
		    \lower
		>>
	    >>
	>>
	  
	\layout {
	    \context {
		\PianoStaff
		\accepts Dynamics
		\consists #Span_stem_engraver
	    }
	    
	    \context { \Staff \RemoveEmptyStaves }
	}  

	\midi
	{
	    \context {
		\type "Performer_group"
		\name Dynamics
		\consists "Piano_pedal_performer"
		\consists "Dynamic_performer"
	    }
	    \context {
		\PianoStaff
		\accepts Dynamics
	    }
	    \tempo 4 = 75
	}  
    }
}
