\version "2.19.49"
% clairnote-type = sn
\include "clairnote.ly"

\header {
  title = "Minuet"
  composer = "J. S. Bach"
  opus = "Anna Magdalena Nb 2, BWV Anh. 114"

 % Mutopia
 mutopiatitle = "Menuet in G"
 mutopiacomposer = "BachJS"
 % Transcribed for two trumpets (or other soprano instrument)
 mutopiainstrument = "Transcribed for Trumpet Duet"
 date = "1725"
 source = "Transcribed"
 style = "Baroque"
 license = "Public Domain"
 maintainer = "Shamim Mohamed"
 maintainerEmail = "shamim-mu@languid.org"
 maintainerWeb = "http://www.drones.com"
 lastupdated = "2002/Aug/6"
 mutopiaopus = "BWV Anh. 114"
 mutopiamoreInfo = "<p>Transcribed by the maintainer for the Trumpet, although it can probably be played on practically any instrument. Originally composed for keyboard instruments (both the original version and a guitar arrangement can be found in the Mutopia archive).</p>"
 
 footer = "Mutopia-2011/06/19-258"
 copyright = \markup { \vspace #1.8 \sans \abs-fontsize #7.5 \wordwrap {Sheet music in \with-url \clairnoteTypeUrl { \clairnoteTypeName music notation}  published by Paul Morris using \with-url #"http://www.lilypond.org" {LilyPond.} Original typesetting by \maintainer for the \with-url #"http://www.mutopiaproject.org" {Mutopia Project.} Placed in the \with-url #"http://creativecommons.org/publicdomain/zero/1.0/" {public domain} by the typesetter. Free to distribute, modify, and perform.}}
 tagline = ##f
}

%\pointAndClickOff

\score {
   \context StaffGroup
  <<
    \context Staff = staffA {
      \time 3/4
      \clef treble
      \key g \major
      \relative c' { 
        \repeat "volta" 2 {
          d'4\p \< g,8(  a8) b8 c8  d4\!(  g,4)-. g4 |
          e'4 \< c8(  d8) e8 fis8  g4\!(  g,4)-. g4 |
          c4 d8(  c8) b8 a8
          b4 c8(  b8) a8 g8 |
          fis4 g8(  a8) b8 g8 b4 a2 |
          d4 \< g,8(  a8) b8 c8  d4\!(  g,4)-. g4 |
          e'4 c8( \<  d8) e8 fis8  g4\!(  g,4)-. g4 |
          c4 d8(  c8) b8 a8 b4 c8(  b8) a8 g8 |
          a4 b8(  a8) g8 fis8 g2.
          \bar "|."
        }
	\repeat "volta" 2 {
          b'4\mf g8(  a8) b8 g8 |
          a4 d,8(  e8) fis8 d8 |
          g4 e8(  fis8) g8 d8 | cis4 b8(  cis8) a4 |
          a8( \<  b8) cis8 d8 e8  fis8\! |
          g4-. fis4-. e4-. fis4-. a,4-. cis4 | d2. \> \!
          d4\p g,8( fis8  g4) | e'4 g,8( fis8  g4) d'4(  c4) b4 |
          a8(  g8) fis8 g8 a4 d,8( \<  e8) fis8 g8 a8  b8\! |
          c4-. b4-. a4-. b8( \>  d8) g,4-.  fis4\! g2.
          \bar "|."
        }
      }
    }
    \context Staff = staffB {
      \time 3/4
      \clef treble
      \key g \major
      \relative c' {
        \repeat "volta" 2 {
          g'2 a4 b2. c2. b2. a2. |
          g2. d'4 b4 g4 | d'4 d,8 c'8 b8 a8 b2 a4 g4 b4 g4 |
          c2. b4 c8(  b8) a8 g8 | a2 fis4 g2 b4 c4 d4 d,4 g4 d4 g4
          \bar "|."
        }
	\repeat "volta" 2 {
          g2. fis2. e4 g4 e4 a2 a,4 a'2. |
          b4-. d4-. cis4-. d4-. fis,4-. a4-. d4(  d,4) c'4 |
          b4 d,4 b'4 c4 e,4 c'4 b4(  a4) g4 |
          d'2 r4 d,2 fis4 e4-. g4-. fis4-. g4(  b,4)-. d4-. g4-. d4-. g4-.
	  \bar "|."
        }
      }
    }
  >>
  \header { piece = "ALLEGRO"}
  
  \midi {
    \tempo 4 = 132
    }


  \layout {}
}


