\version "2.19.49"
% clairnote-type = sn
\include "clairnote.ly"
% $Revision: 1.3 $

\header {
  title = "28 melodische Übungsstücke"
  subtitle = "6."
  composer = "Anton Diabelli"
  opus = "Op 149"

  mutopiatitle = "28 melodische Übungsstücke (No. 6)"
  mutopiacomposer = "DiabelliA"
  mutopiaopus = "Op. 149"
  mutopiainstrument = "Piano Duet"
  source = "Unknown"
  style = "Classical"
  license = "Creative Commons Attribution-ShareAlike 3.0"
  maintainer = "Alberto Simões"
  maintainerEmail = "ambs@cpan.org"
  maintainerWeb = "http://alfarrabio.di.uminho.pt/~albie"

 footer = "Mutopia-2013/01/06-408"
 copyright = \markup { \vspace #1.8 \sans \abs-fontsize #7.5 \wordwrap {Sheet music in \with-url \clairnoteTypeUrl { \clairnoteTypeName music notation}  published by Paul Morris using \with-url #"http://www.lilypond.org" {LilyPond.} Original typesetting by \maintainer for the \with-url #"http://www.mutopiaproject.org" {Mutopia Project.} Licensed under \with-url #"http://creativecommons.org/licenses/by-sa/3.0/" {Creative Commons Attribution-ShareAlike 3.0} Free to distribute, modify, and perform.}}
 tagline = ##f
}


primoAllegroDynamics =  {
  s2.\p s4\< s4 s4\! s4\> s4 s4\! s2. s2. s2. s4\> s4 s4\! s2.\f s2.
  s4\> s4 s4\! s4\> s4 s4\! s2. s2. s2. s2.
  s2.\p s8\> s2 s8\! s2. s8\> s2 s8\! s2.
  s2. s2. s4\< s4 s4\! s2.\f s2. s4\> s4 s4\! s4\> s4 s4\! s2. s2. s2. s2. s2._\markup{Fine}
}

primoAllegroUp =  {
  \time 3/4
  \clef treble
  \relative c''' {
    \override Score.OttavaBracket.padding = #2
    \ottava #1
    \repeat volta 2 {
      e8-3( f g4-.) g-.
      g-. g-. g-.
      g2( e4)
      e2-3( c4)
      d8-2( e f4-.) f-.
      f-. e-. d-.
      c8-1( d e4-.) e-.
      e2( c4)

      e8-3( f g4-.) g-.
      g-. g-. g-.
      g2( f4)
      f2-4( e4)
      d8-2( e) d4-. d-.
      \grace{ d16[ e]} f4-. e-. d-.
      c4.-1 c8 c4
      c2 r4
    }
    \repeat volta 2 {
      d8-2( e) d4-. d-.
      g2.-5-.
      ees8-3( f) ees4-. ees-.
      g2.-5-.
      f8( g) f4 r
      ees8-3( f) ees4-. r
      d-2( g) g-.
      g( f d)
      e8-3( f g4-.) g-.
      g-. g-. g-.
      g2( f4)
      f2-4( e4)
      d8-2( e) d4-. d-.
      \grace{ d16[ e]} f4-. e-. d-.
      c4.-1 c8 c4
      c2 r4
    }
  }
}

primoAllegroDown =  {
  \time 3/4
  \clef treble
  \relative c'' {
    \repeat volta 2 {
      e8-3( f g4-.) g-.
      g-. g-. g-.
      g2( e4)
      e2-3( c4)
      d8-4( e f4-.) f-.
      f-. e-. d-.
      c8-5( d e4-.) e-.
      e2( c4)

      e8-3( f g4-.) g-.
      g-. g-. g-.
      g2( f4)
      f2-2( e4)
      d8-4( e) d4-. d-.
      \grace{ d16[ e]} f4-. e-. d-.
      c4.-5 c8 c4
      c2 r4
    }
    \repeat volta 2 {
      d8-4( e) d4-. d-.
      g2.-1-.
      ees8-3( f) ees4-. ees-.
      g2.-1-.
      f8( g) f4 r
      ees8-3( f) ees4-. r
      d-4( g) g-.
      g( f d)
      e8-3( f g4-.) g-.
      g-. g-. g-.
      g2( f4)
      f2-2( e4)
      d8-4( e) d4-. d-.
      \grace{ d16[ e]} f4-. e-. d-.
      c4.-5 c8 c4
      c2 r4
    }
  }
}

secondoAllegroDynamics =  {
  s2.\p s2. s2. s2. s2. s2. s2. s2. s2.\f s2.
  s2. s2. s2. s2. s2. s2. s2.\p s2. s2. s2. s2.
  s2. s4\< s2 s2 s4\! s2.\f s2. s2. s2. s2. s2. s2. s2._\markup{Fine}
}

secondoAllegroUp =  {
  \time 3/4
  \clef treble
  \relative c' {
    \set fingeringOrientations = #'(left)
    \accidentalStyle modern
    \repeat volta 2 {
      r4 <c-1 e-3 g-5> <c e g>
      r <d-2 f-4 g-5> <d f g>
      r <c-1 e-3 g-5> <c e g>
      r <c e g> <c e g>
      r <c-1 d-2 a'-5> <c d a'>
      r <b-1 d-2 g-5> <b d g>
      r <c-1 e-3 g-5> <c e g>
      r <c e g> <c e g>
      r <c e g> <c e g>
      r <d-2 g-5> <d g>
      r <c f-2 c'-5> <c f c'>
      r <c e-2 c'-5> <c e c'>
      r <c-1 d-2 a'-5> <c d a'>
      r <b-1 d-2 f-4 g-5> <b d f g>
      r <c-1 e-2 g-5> <c e g>
      <c e g>2 r4
    }
    \repeat volta 2 {
      r <b-1 d-2 g-5> <b d g>
      r <b d g> <b d g>
      r <c-1 ees-3 g-5> <c ees g>
      r <c ees g> <c ees g>
      r <d-2 f-4 g-5> <d f g>
      r <c-1 ees-3 g-5> <c ees g>
      r <b-1 d-2 g-5> <c-1 ees-3 g-5>
      <d-2 f-4 g-5>2.
      r4 <c-1 e-3 g-5> <c e g>
      r <d-2 g-5> <d g>
      r <c f-2 c'-5> <c f c'>
      r <c e-2 c'-5> <c e c'>
      r <c-1 d-2 a'-5> <c d a'>
      r <b-1 d-2 f-4 g-5> <b d f g>
      r <c-1 e-3 g-5> <c e g>
      <c e g>2 r4
    }
  }
}

secondoAllegroDown =  {
  \time 3/4
  \clef bass
  \relative c {
    \accidentalStyle modern
    \repeat volta 2 {
      c4-2 r r
      b r r
      c-2 r r
      c-1 r r
      f,-4 r r
      g-3 r r
      c-1 r r
      c r r
      <c, c'> r r
      <b b'> r r
      <a a'> r r
      <g g'> r r
      <fis fis'> r r
      <g g'> r r
      <c c'> r <c c'>
      <c c'>2 r4
    }
    \repeat volta 2 {
      <g' g'>4 r r
      <g g'> r r
      <g g'> r r
      <g g'> r r
      b-3 r r
      c-2 r r
      <g g'>2. ~ <g g'>2.
      <c, c'>4 r r
      <b b'> r r
      <a a'> r r
      <g g'> r r
      <fis fis'> r r
      <g g'> r r
      <c c'> r <c c'>
      <c c'>2 r4
    }
  }
}

\score{
  \context PianoStaff  <<
    \set PianoStaff.instrumentName = "Secondo   "
    \context Staff = "up"   \secondoAllegroUp
    \context Dynamics = "dynamics" \secondoAllegroDynamics
    \context Staff = "down" \secondoAllegroDown
  >>
  \layout { }
  \header { piece = "Allegro." }
}


\score{
  \context PianoStaff <<
    \set PianoStaff.instrumentName = "Primo     "
    \context Staff = "up"   \primoAllegroUp
    \context Dynamics = "dynamics" \primoAllegroDynamics
    \context Staff = "down" \primoAllegroDown
  >>
  \layout { }
  \header { piece = "Allegro." }
}

\score{
  \context PianoStaff  <<
    \context Staff = "up"   <<
      \applyMusic #unfold-repeats \primoAllegroUp
      \applyMusic #unfold-repeats \secondoAllegroUp
    >>
    \context Staff = "down" <<
      \applyMusic #unfold-repeats \primoAllegroDown
      \applyMusic #unfold-repeats \secondoAllegroDown
    >>
  >>

  \midi {
    \tempo 4 = 120
  }
}


%%%% TRIO %%%%

primoTrioDynamics =  {
  s2.\p s2. s2. s2. s2.\f s2. s2. s2.
  s2.\p s2. s2. \deprecatedcresc s2. s2 \deprecatedendcresc s4 s2\f s2 s2_\markup{Da Capo al fine}
}

primoTrioUp =  {
  \time 3/4
  \clef treble
  \key ees \major
  \relative c''' {
    \override Score.OttavaBracket.padding = #2
    \ottava #1
    \repeat volta 2 {
      ees2-3( f8-4 ees-3)
      d2-2( ees8-3 d-2)
      c2-1 ees8-3( f)
      g2.-5
      g2 fis4^^
      g2 fis4^^
      g2 fis4^^
      g2 r4
      ees2-3( d8 ees)
      f2-4( ees8 f)
      g2.-5
      f4-.-4 ees-. d-.
      ees-.-3 d-. c-.
      d4.-2 g8 g4
      c,2.-1 ~ c4 r r
    }
  }
}

primoTrioDown =  {
  \time 3/4
  \clef treble
  \key ees \major
  \relative c'' {
    \repeat volta 2 {
      ees2-3( f8-2 ees-3)
      d2-4( ees8-3 d-4)
      c2-5 ees8-3( f)
      g2.-1
      g2 fis4^^
      g2 fis4^^
      g2 fis4^^
      g2 r4
      ees2-3( d8 ees)
      f2-2( ees8 f)
      g2.-1
      f4-.-2 ees-. d-.
      ees-.-3 d-. c-.
      d4.-4 g8 g4
      c,2.-5 ~ c4 r r
    }
  }
}

secondoTrioDynamics =  {
  s2.\p s2. s2. s2. s2.\f s2. s2. s2.
  s2.\p s2. s2. \deprecatedcresc s2. s2 \deprecatedendcresc s4 s2.\f  s2._\markup{Da Capo al fine}
}

secondoTrioUp =  {
  \time 3/4
  \clef treble
  \key ees \major
  \relative c' {
    \set fingeringOrientations = #'(left)
    \accidentalStyle modern
    \repeat volta 2 {
      r4 <c ees-3 g-5> <c ees g>
      r <b f'-4 g-5> <b f' g>
      r <c ees g> <c ees g>
      r <c ees g> <c ees g>
      r <b-1 d-2 g-5> <c-1 ees-2 fis-3 a-5>
      r <b d g> <c ees fis a>
      r <b d g> <c ees fis a>
      r <b-1 d-2 g-5>-> <d-2 f-4>
      r <g, c-2 ees-4> <g c ees>
      r <bes-2 d-3 f-5> <bes d f>
      r <bes-2 ees-4 g> <bes ees g>
      r <c d-2 aes'-5> <c d aes'>
      r <c ees-3 g-5> <c ees g>
      r <b d f-4 g-5> <b d f g>
      r <c ees-3 g-5> <c ees g>
      <c ees g>2 r4
    }
  }
}

secondoTrioDown =  {
  \time 3/4
  \clef bass
  \key ees \major
  \relative c {
    \accidentalStyle modern
    \repeat volta 2 {
      <c, c'>4 r r
      <c c'> r r
      <c c'> r r
      <c c'> r r
      <g g'>2.->
      <g g'>2.->
      <g g'>2.->
      <g g'>4 r r
      c' r r
      bes-3 r r
      <ees, ees'> r r
      f-3 r r
      g-2 r r
      <g, g'> r <g g'>
      <c c'> r <c c'>
      <c c'>2 r4
    }
  }
}

\score{
  \context PianoStaff  <<
    \set PianoStaff.instrumentName = "Secondo    "
    \context Staff = "up"   \secondoTrioUp
    \context Dynamics = "dynamics" \secondoTrioDynamics
    \context Staff = "down" \secondoTrioDown
  >>
  \layout { }
  \header { piece = "Trio." }
}


\score{
  \context PianoStaff <<
    \set PianoStaff.instrumentName = "Primo    "
    \context Staff = "up"   \primoTrioUp
    \context Dynamics = "dynamics" \primoTrioDynamics
    \context Staff = "down" \primoTrioDown
  >>
  \layout { }
  \header { piece = "Trio." }
}



\score{
  \context PianoStaff  <<
    \context Staff = "up"   <<
      \applyMusic #unfold-repeats \primoTrioUp
      \applyMusic #unfold-repeats \secondoTrioUp
    >>
    \context Staff = "down" <<
      \applyMusic #unfold-repeats \primoTrioDown
      \applyMusic #unfold-repeats \secondoTrioDown
    >>
  >>

  \midi {
    \tempo 4 = 120
  }
}
