\version "2.19.49"
% clairnote-type = sn
\include "clairnote.ly"
\include "rolla_6duos_2_header.ly"
\include "rolla_6duos_2_parts.ly"
\header { subtitle = "Viola 2" }
\score {
  \new StaffGroup \keepWithTag #'vlatwo \part_duet_i
  \header {
    piece = "Duet 2 - Moderato"
  }
  \layout { }
  \midi {
    \tempo 4=100
  }
}
\pageBreak
\score {
  \new StaffGroup \keepWithTag #'vlatwo \part_duet_ii
  \header {
    piece = "Duet 2 - Minuetto Grazioso"
  }
  \layout { }
  \midi {
    \tempo 4=100
  }
}
