\version "2.19.49"

IIMandII =  \relative c' {
  \clef "treble"
  \key es\major
  \time 2/4

  \repeat "volta" 2 {
  g16 g g g bes bes bes bes |
  g g g g bes bes bes bes |
  as as as as bes bes bes bes |
  %4 
  as as as as bes bes bes bes |
  bes bes bes bes d d d d |
  bes bes bes bes d d d d |
  g, g g g bes bes bes bes |
  %8
  g g g g bes bes bes bes |
  as as as as bes bes bes bes |
  as as as as bes bes bes bes |
  bes bes bes bes d d d d |
  %12
  bes bes bes bes d d d d |
  <es g,>2 |
  g,16 bes g bes g bes g bes |
  as c as c as c as c |
  %16
  g bes g bes g bes g bes |
  d f d f d f d f |
  g, bes g bes g bes g bes |
  as c as c as c as c |
  %20
  g bes g bes g bes g bes |
  g as bes g d' es f d |
  <es g,>2 |
  }

  \repeat "volta" 2 {
  bes16 d bes d bes d bes d |
  %24
  es g es g es g es g |
  as f d bes d bes d bes |
  g bes g bes g bes g bes |
  d f d f d f d f |
  %28
  es g es g es g es g |
  bes, d f as f d f d |
  <es bes>4 es'16 es es es |
  c c c c as as as as |
  %32
  g g g g es es es es |
  bes bes bes bes d d d d |
  es4 <<{g8. g16 |  g8[ g g g]} \\ {bes,4 | bes2}>> |
  %36
  <es g,>4 es'16 es es es |
  c c c c as as as as |
  g g g g es es es es |
  bes bes bes bes d d d d |
  %40 Note: the bes,4 is connected to the g16 in 148, so the bar looks like "es8 es es es g8. <g bes,>16"
  es es es es <<{g8. g16} \\ bes,4>> |
  <<{g'8 g g g} \\ bes,2>> |
  <es g,>2 \bar "|."
  }
}
