% -*- LilyPond -*-

\version "2.19.49"
% clairnote-type = sn
\include "clairnote.ly"

#(set-global-staff-size 16)

\include "defs.ily"

\include "violin1-i.ily"
\include "violin2-i.ily"
\include "viola-i.ily"
\include "cello-i.ily"

\score {
    <<

	\context StaffGroup = "strings" <<

	    \context Staff = violinI <<
	        \set Staff.autoBeaming = ##f
                \set Staff.midiInstrument = #"violin"
		\set Staff.instrumentName = "Violino I."
		\set Staff.shortInstrumentName = "Vl.I"

		\time 3/4

		\violinIFirstMov
		\context Voice = "markings" { \markingsI }
	    >>

	    \context Staff = violinII <<
	        \set Staff.autoBeaming = ##f
                \set Staff.midiInstrument = #"violin"
		\set Staff.instrumentName = "Violino II."
		\set Staff.shortInstrumentName = "Vl.II"

		\time 3/4

		\violinIIFirstMov
	    >>

	    \context Staff = "viola" <<
	        \set Staff.autoBeaming = ##f
                \set Staff.midiInstrument = #"cello"
		\set Staff.instrumentName = "Viola."
		\set Staff.shortInstrumentName = "Vla"

		\time 3/4

		\violaFirstMov
	    >>

	    \context Staff = "cello" <<
	        \set Staff.autoBeaming = ##f
                \set Staff.midiInstrument = #"cello"
		\set Staff.instrumentName = "Violoncello."
		\set Staff.shortInstrumentName = "Vc."

		\time 3/4

		\celloFirstMov
	    >>
	>>
    >>

    
  \midi {
    \tempo 4 = 40
    }



    \layout { }
}


\include "violin1-ii.ily"
\include "violin2-ii.ily"
\include "viola-ii.ily"
\include "cello-ii.ily"

\score {
    <<

	\context StaffGroup = "strings" <<
	    \context Staff = violinI <<
	        \set Staff.autoBeaming = ##f
                \set Staff.midiInstrument = #"violin"
		\set Staff.instrumentName = "Violino I."
		\set Staff.shortInstrumentName = "Vl.I"

		\time 3/4

		\violinISecondMov
		\context Voice = "markings" { \markingsII }
	    >>

	    \context Staff = violinII <<
	        \set Staff.autoBeaming = ##f
                \set Staff.midiInstrument = #"violin"
		\set Staff.instrumentName = "Violino II."
		\set Staff.shortInstrumentName = "Vl.II"

		\time 3/4

		\violinIISecondMov
	    >>

	    \context Staff = "viola" <<
	        \set Staff.autoBeaming = ##f
                \set Staff.midiInstrument = #"cello"
		\set Staff.instrumentName = "Viola."
		\set Staff.shortInstrumentName = "Vla"

		\time 3/4

		\violaSecondMov
	    >>

	    \context Staff = "cello" <<
	        \set Staff.autoBeaming = ##f
                \set Staff.midiInstrument = #"cello"
		\set Staff.instrumentName = "Violoncello."
		\set Staff.shortInstrumentName = "Vc."

		\time 3/4

		\celloSecondMov
	    >>
	>>
    >>

    
  \midi {
    \tempo 4 = 64
    }



    \layout { }
}

\include "violin1-iii.ily"
\include "violin2-iii.ily"
\include "viola-iii.ily"
\include "cello-iii.ily"


\score {
    <<

	\context StaffGroup = "strings" <<
	    \context Staff = violinI <<
	        \set Staff.autoBeaming = ##f
                \set Staff.midiInstrument = #"violin"
		\set Staff.instrumentName = "Violino I."
		\set Staff.shortInstrumentName = "Vl.I"

		\time 3/4
		\partial 4

		\violinIThirdMov
		\context Voice = "markings" { \markingsIII }
	    >>

	    \context Staff = violinII <<
	        \set Staff.autoBeaming = ##f
                \set Staff.midiInstrument = #"violin"
		\set Staff.instrumentName = "Violino II."
		\set Staff.shortInstrumentName = "Vl.II"

		\time 3/4
		\partial 4

		\violinIIThirdMov
	    >>

	    \context Staff = "viola" <<
	        \set Staff.autoBeaming = ##f
                \set Staff.midiInstrument = #"cello"
		\set Staff.instrumentName = "Viola."
		\set Staff.shortInstrumentName = "Vla"

		\time 3/4
		\partial 4

		\violaThirdMov
	    >>

	    \context Staff = "cello" <<
	        \set Staff.autoBeaming = ##f
                \set Staff.midiInstrument = #"cello"
		\set Staff.instrumentName = "Violoncello."
		\set Staff.shortInstrumentName = "Vc."

		\time 3/4
		\partial 4

		\celloThirdMov
		\context Voice=markingsBis { \markingsIIIbis }
	    >>
	>>
    >>

    
  \midi {
    \tempo 4 = 140
    }



    \layout { }
}


\include "violin1-iv.ily"
\include "violin2-iv.ily"
\include "viola-iv.ily"
\include "cello-iv.ily"


\score {
    <<

	\context StaffGroup = "strings" <<

	    \context Staff = violinI <<
	        \set Staff.autoBeaming = ##f
                \set Staff.midiInstrument = #"violin"
		\set Staff.instrumentName = "Violino I."
		\set Staff.shortInstrumentName = "Vl.I"

		\time 2/4
		\partial 4

		\violinIFourthMov	
		\context Voice = "markings" { \markingsIV }
	    >>

	    \context Staff = violinII <<
	        \set Staff.autoBeaming = ##f
                \set Staff.midiInstrument = #"violin"
		\set Staff.instrumentName = "Violino II."
		\set Staff.shortInstrumentName = "Vl.II"

		\time 2/4
		\partial 4

		\violinIIFourthMov
	    >>

	    \context Staff = "viola" <<
	        \set Staff.autoBeaming = ##f
                \set Staff.midiInstrument = #"cello"
		\set Staff.instrumentName = "Viola."
		\set Staff.shortInstrumentName = "Vla"

		\time 2/4
		\partial 4

		\violaFourthMov
	    >>

	    \context Staff = "cello" <<
	        \set Staff.autoBeaming = ##f
                \set Staff.midiInstrument = #"cello"
		\set Staff.instrumentName = "Violoncello."
		\set Staff.shortInstrumentName = "Vc."

		\time 2/4
		\partial 4

		\celloFourthMov
	    >>
	>>
    >>

    
  \midi {
    \tempo 4 = 152
    }



    \layout { }
}
