% -*- LilyPond -*-

\version "2.19.49"
% clairnote-type = sn
\include "clairnote.ly"

\include "defs.ily"

\header {
    instrument = "Cello."
}

\layout {
    \compressFullBarRests
}

\include "cello-i.ily"

\score {
    \context Staff <<
	\set Staff.autoBeaming = ##f
        \set Staff.midiInstrument = #"cello"

	\time 3/4

	\celloFirstMov
	\context Voice = "markings" { \markingsI }
    >>

    
  \midi {
    \tempo 4 = 40
    }



    \layout { }
}

\include "cello-ii.ily"

\score {
    \context Staff <<
	\set Staff.autoBeaming = ##f
        \set Staff.midiInstrument = #"cello"

	\time 3/4

	\celloSecondMov
	\context Voice = "markings" { \markingsII }
    >>

    
  \midi {
    \tempo 4 = 64
    }



    \layout { }
}

\include "cello-iii.ily"

\score {
    \context Staff <<
	\set Staff.autoBeaming = ##f
        \set Staff.midiInstrument = #"cello"

	\time 3/4
	\partial 4

	\celloThirdMov
	\context Voice = "markings" { \markingsIII }
	\context Voice=markingsBis { \markingsIIIbis }
    >>

    
  \midi {
    \tempo 4 = 140
    }



    \layout { }
}

\include "cello-iv.ily"

\score {
    \context Staff <<
	\set Staff.autoBeaming = ##f
        \set Staff.midiInstrument = #"cello"

	\time 2/4
	\partial 4

	\celloFourthMov
	\context Voice = "markings" { \markingsIV }
    >>

    
  \midi {
    \tempo 4 = 152
    }



    \layout { }
}
