\version "2.19.49"
% clairnote-type = sn
\include "clairnote.ly"

\header {
  title = "12 Etudes"
  composer = "F. Sor"
  opus = "Op. 6 No. 9"
  style = "Romantic"
  source = "N. Simrock, Berlin. Plate 9106"
  date = "c.1889"
  mutopiacomposer = "SorF"
  mutopiainstrument = "Guitar"
  mutopiatitle = "12 Etudes, No. 9"
  license = "Creative Commons Attribution-ShareAlike 4.0"
  maintainer = "Glen Larsen"
  maintainerEmail = "glenl.glx at gmail.com"

 footer = "Mutopia-2016/08/04-2129"
 copyright = \markup { \vspace #1.8 \sans \abs-fontsize #7.5 \wordwrap {Sheet music in \with-url \clairnoteTypeUrl { \clairnoteTypeName music notation}  published by Paul Morris using \with-url #"http://www.lilypond.org" {LilyPond.} Original typesetting by \maintainer for the \with-url #"http://www.mutopiaproject.org" {Mutopia Project.} Licensed under \with-url #"http://creativecommons.org/licenses/by-sa/4.0/" {Creative Commons Attribution-ShareAlike 4.0} Free to distribute, modify, and perform.}}
 tagline = ##f
}

\paper {
  % add space between composer/opus markup and first staff
  markup-system-spacing.padding = #3
  % add a little space between composer and opus
  markup-markup-spacing.padding = #1.2
  top-margin = #8
  bottom-margin = #12
%  system-count = #8
}

mbreak = { \break }
global = {
  \time 4/4
  \key d \minor
}

upperVoice = \fixed c' {
  \voiceOne
  \set fingeringOrientations = #'(up)
  \override Fingering.add-stem-support = ##t

  \repeat volta 2 {
    <f, d>8 <e, cis> <f, d> <g, e> <a, e> <bes, g> <a, f> <g, e> |
    <f, d>8 <e, cis> <f, d> <g, e> <a, f> <f, d> <g, e> <a, f> |
    <bes, g>8 <a, fis> <bes, g> <a, fis> <bes, g> <d bes> <c a> <bes, g> |
    <bes, g>8 <a, f> q q <gis, e> <a, f> <bes, g> <a, f> |
    <g,! e>8 <f, d> <e, cis> <f, d> <g, e> <bes, g> <a, f> <g, e> |

    \mbreak
    <g, e>8 <f, d> <a, f> <g, e> <bes, g> <a, f> <gis, e> <a, f> |
    <g,! e>8 <f, d> <e, cis> <f, d> <g, e> <bes, g> <a, f> <g, e> |
    <g, e>8 <f, d> <a, f> <g, e> <f, d> <a, f> q q |
    <a, f>8 <g, e> q q q <f, d> q q |
    <f, d>8 <e, cis> <g, e> <f, d> <e, cis>4 b,\rest |
  }

  \mbreak
  \repeat unfold 2 {
    <a, c!>8 <gis, b,> <a, c> <bes, d> <a, c> a <bes, g> <a, f> |
    <g, f>8 e <bes, g> <a, f> <g, e> <f, d> g,[ bes,] |
  }
  <a, c>8 <gis, b,> <a, c> a <bes, g> <a, f> <gis, e> <a, f> |

  \mbreak
  <c e>8 <bes, d> <a,cis> <bes, d> q <d bes> <c a> <d g> |
  g8 f f f <g, e> <a, f> <bes, g> <g, e> |
  <a, f>2. r4 | \bar "||"
  <f, a, c>2 <ees, g, cis> |
  <fis, d>4. <g, e>8 <fis, d> <g, e> <a, fis> <bes, g> |
  <c a>4 q q q |

  \mbreak
  <c a>8 <bes, g> <d bes> <c a> <bes, g>4 r |
  bes,2 <f, b,> |
  <e, c>4. <d, b,>8 <e, c> <f, d> <g, e> <a, f> |
  <bes, g>4 q q q |
  q2 <a, f>4 r |
  <a, f>8 <g, e> q q q2 |

  \mbreak
  <g, e>8 <f, d> q q q <a, f> q q |
  <a, f> <g, e> q q q <f, d> q q |
  \repeat unfold 2 {
    a8\rest a a a a2 |
    b8\rest a4 a a a8 |
  }
  s8 a a a a a( bes) bes( |
  a8) a( gis) gis( a) a( gis) gis( |
  \oneVoice
  <cis a>8) q( <d gis>) q( <cis a>) q( <d gis>) q( |
  <cis a>8) a( <bes, g!>) q( <a, f>) q( <g, e>) q |
  \voiceOne

  \mbreak
  <f, d>8 <e, cis> <f, d> <g, e> <a, f> <bes, g> <a, f> <g, e> |
  \slashedGrace{<g, e>8} <f, d> <e, cis> <f, d> <g, e> <a, f> <f, d> <g, e> <a, f> |
  <bes, g>8 <a, fis> <bes, g> <a, fis> <bes, g> <d bes> <c a> <bes, g> |
  <bes, g>8 <a, f> q q <gis, e> <a, f> <bes, g!> <a, f> |
  <g,! e>8 <f, d> <e, cis> <f, d> <g, e> <bes, d> <a, cis> <g, e> |

  \mbreak
  <g, e>8 <f, d> <a, f> <g, e> <bes, g> <a, f> <gis, e> <a, f> |
  <g,! e>8 <f, d> <e, cis> <f, d> <g, e> <bes, d> <a, cis> <g, e> |
  <g, e>8 <f, d> <a, f> <g, e> <f, d> <g, e> <a, fis> <bes, g> |
  <c a>2. q4 |
  <c a>8 <bes, g> <d bes> <c a> q <bes, g> <a, f> <g, e> |

  \mbreak
  <g, e>8 <f, d> <e, cis> <f, d> <a, f> <g, e> <f, d> <e, cis> |
  <f, d>8 <e, cis> <f, d> <g, e> <a, fis> <g, e> <a, fis> <bes, g> |
  <c! a>2. q4 |
  <c a>8 <bes, g> <d bes> <c a> q <bes, g> <a, f> <g, e> |
  <g, e>8 <f, d> <bes, g> <a, f> <g, e> <f, d> <e, cis> <g, e> |

  \mbreak
  \repeat unfold 2 {<f, d>8 <a, f> <bes, g> <a, f> <g, e> <f, d> <e, cis> <g, e> |}
  \repeat unfold 2 { <f, d>2. <g, e>4 | }
  <f, d>2 q |
  q1

  \bar "|."
}

lowerVoice = \fixed c {
  \voiceTwo
  \set fingeringOrientations = #'(down)
  \override Fingering.add-stem-support = ##t

  \repeat unfold 4 {d,2. d4 |}
  a,2. a,4 |

  d,2. d4 |
  a,2. a,4 |
  d,2. d,4 |
  a,4 cis d d, |
  a,2. s4 |

  \repeat unfold 2 {
    f2. f8 c\rest |
    c4 b,\rest b,\rest <e c'>4 |
  }
  f2. f8 c\rest |

  bes,4 c\rest c8\rest g a bes |
  <a c'>4 c\rest c c\rest |
  c8\rest f c a, f,4 s4 |
  s1 |
  d2 s |
  c8\rest d cis d e d fis d |

  g2. s4 |
  g2 des |
  c2 s |
  c8\rest c b, c d c e c |
  f2 c8\rest f e d |
  a,2 c8\rest a, cis a, |

  d2 a,4\rest d, |
  a,4 cis d d, |
  \repeat unfold 2 {
    <a, e cis'>2 c'8\rest <e cis'> <f d'> <fis dis'> |
    <<{\voiceTwo a,4\rest cis <d fis d'!> <d, f d'>}\\{\voiceThree <g e'>2 s}>>|
  }
  <<{\voiceTwo a,2 s}\\{\voiceThree <e cis'>2 s }>> |
  r4 d' cis' d' |
  s1*2 |

  \repeat unfold 4 {d,2. d4 |}
  a,2. a,4 |

  d,2. d4 |
  a,2. a,4 |
  d,2. c4\rest |
  c8\rest d cis d e d fis d |
  g4 e\rest r2 |

  a,2. a,4 |
  d,2. d4 |
  d,8 d cis d e d fis d |
  g4 e\rest r2 |
  a,2. a,4 |

  d,2 a, |
  d,2 a, |
  <<{\voiceTwo s8 a, d a, d a, cis a, }\\{d,1}>> |
  <<{\voiceTwo s8 a, d a, d a, cis a, }\\{d,1}>> |
  <<{\voiceTwo s8 a, d a, d a, d a, }\\{d,1}>> |
  d,1
}

\score {
  \header {
    piece = #"Tuning: DADGBE"
  }
  <<
    \new Staff = "Guitar" \with {
      midiInstrument = #"acoustic guitar (nylon)"
      instrumentName = #"Nº 9"
      \mergeDifferentlyDottedOn
      \mergeDifferentlyHeadedOn
%      \override StringNumber.stencil = ##f
    } <<
      \global
      \clef "treble_8"
      \tempo "Andante Agitato."
      \context Voice = "upperVoice" \upperVoice
      \context Voice = "lowerVoice" \lowerVoice
    >>
%{
    % tabs are not completely developed
    \new TabStaff = "Guitar tabs" \with {
      restrainOpenStrings = ##t
    } <<
      \clef "moderntab"
      \global
      \context TabVoice = "upperVoice" \upperVoice
      \context TabVoice = "lowerVoice" \lowerVoice
    >>
%}
  >>
  \layout {}
  \midi {
    \context { \TabStaff \remove "Staff_performer" }
    \tempo 4 = 74
  }
}
