\version "2.19.49"
% clairnote-type = sn
\include "clairnote.ly"

\include "defs.ily"


\include "violin2-i.ily"

\score {
    \context Staff <<
        \override Score.BarNumber.padding = #3
	\set Score.skipBars = ##t
	\set Staff.autoBeaming = ##f
        \set Staff.midiInstrument = #"violin"
	\set Staff.instrumentName = "Violino II."
	\globalI

	\KeyI
	\markingsI
	\violinIIFirstMov
    >>

    
  \midi {
    \tempo 4 = 120
    }



    \layout { }
}


\include "violin2-ii.ily"

\score {
    \context Staff <<
        \override Score.BarNumber.padding = #3
	\set Score.skipBars = ##t
	\set Staff.autoBeaming = ##f
        \set Staff.midiInstrument = #"violin"
	\set Staff.instrumentName = "Violino II."
	\globalII

	\KeyII
	\markingsII
	\violinIISecondMov
    >>

    
  \midi {
    \tempo 4 = 120
    }



    \layout { }
}


\include "violin2-iii.ily"


\score {
    \context Staff <<
        \override Score.BarNumber.padding = #3
	\set Score.skipBars = ##t
        \set Staff.autoBeaming = ##f
        \set Staff.midiInstrument = #"violin"
	\set Staff.instrumentName = "Violino II."
	\globalIII

	\KeyIII
	\markingsIII
	\violinIIThirdMov
    >>

    
  \midi {
    \tempo 4 = 50
    }



    \layout { }
}


\include "violin2-iv.ily"


\score {
    \context Staff <<
        \override Score.BarNumber.padding = #3
	\set Score.skipBars = ##t
        \set Staff.autoBeaming = ##f
        \set Staff.midiInstrument = #"violin"
	\set Staff.instrumentName = "Violino II."
	\globalIV

	\KeyIV
	\markingsIV
	\violinIIFourthMov	
    >>

    
  \midi {
    \tempo 2 = 120
    }



    \layout { }
}
