\version "2.19.49"
% clairnote-type = sn
\include "clairnote.ly"

Instrument = ""
\include "header.ly"
\include "1-mand1.ly"
\include "1-mand2.ly"
\include "2-mand1.ly"
\include "2-mand2.ly"
\include "3-mand1.ly"
\include "3-mand2.ly"

#(set-global-staff-size 16)

\score {
  \context StaffGroup <<
    \context Staff = I \IMandI
    \context Staff = II \IMandII
  >>

  \layout {}
  
  \midi {
    \tempo 4 = 80
    }


  \header { piece = "Andante, e con espressione" opus = "Gimo 14"}
}

\score {
  \context StaffGroup <<
    \context Staff = I \IIMandI
    \context Staff = II \IIMandII
  >>

  \layout {}
  
  \midi {
    \tempo 4 = 120
    }


  \header { piece = "Allegro" }
}

\score {
  \context StaffGroup <<
    \context Staff = I \IIIMandI
    \context Staff = II \IIIMandII
  >>
  \layout {}
  
  \midi {
    \tempo 4 = 144
    }


  \header { piece = "Gavotta Allegro" }
}

