\version "2.19.49"
% clairnote-type = sn
\include "clairnote.ly"

Instrument = "Basso"
\include "header.ly"
\include "1-basso.ly"
\include "2-basso.ly"
\include "3-basso.ly"
#(set-global-staff-size 16)

\score {
  \context Staff = Basso \IBasso

  \header {piece = "Allegro" opus = "Gimo 88"}
  \layout {}
}

\score {
  \context Staff = Basso \IIBasso

  \header {piece = "Largo"}
  \layout {}
}

\score {
  \context Staff = Basso \IIIBasso

  \header {piece = "Allegro"}
  \layout {}
}
