\version "2.19.49"
% clairnote-type = sn
\include "clairnote.ly"
\include "rolla_6duos_1_header.ly"
\include "rolla_6duos_1_parts.ly"
\header { subtitle = "Viola 2" }
\score {
  \new StaffGroup \keepWithTag #'vlatwo \part_duet_i
  \header {
    piece = "Duet 1 - Moderato"
  }
  \layout { }
  \midi {
    \tempo 4=100
  }
}
\pageBreak
\score {
  \new StaffGroup \keepWithTag #'vlatwo \part_duet_ii
  \header {
    piece = "Duet 1 - Rondo andantino con moto"
  }
  \layout { }
  \midi {
    \tempo 2=50
  }
}
