\version "2.19.49"

IBasso =  \relative c {
  \clef "bass"
  \key d\major
  \time 4/4
%page 2
  \partial 8 r8 |
  d8 d d d d d d d |
  g g a a, d d d,4 |
  d'8 d d d d d d d |
  %4
  g g a a, d d d d |
  d d d d d d d d |
  d d d d d d d d |
  a a a a a a a a |
  %8
  d d d d cis cis cis cis |
  d2 ~ d8 d e e, |
  a a a a d d d d |
  a4 r8 e'8 a,4 r8 e'8 |
  %12
  a,8 a a a a4 d |
   e8[ d]  e[ e,] a4 a |
  a a a8 a'16 e cis a cis e |
  a,4 r4 r2 |
  %16
   a8[ a']  a,[ a']  a,[ a']  a,[ a'] |
  a,4 r8 e'8  a[ d,]  e[ e,] |
   a[ \tuplet 3/2 {a'16 e cis]} a4 b8 b b b |
  e dis e dis
%page 3
     e[ a,]  b[ b] |
  %20
  e e e e a, a a a |
  d cis d cis d d d d |
  a4 a'16 g fis e d4 r8 cis8 |
  d8  d[ e fis] g g a a, |
  %24
  d fis g fis  g[ gis]  a[ gis] |
  a cis, d cis d d d d |
  d d d d d g, a a |
  d4 d d d |
  d8 d'16 a fis d fis a d,2
  \bar "|."
}
