\version "2.19.49"

IIIMandII =  \relative c' {
  \clef "treble"  
  \key d\major
  \time 6/8
%page 20
  d4. fis'8 g fis |
  fis e d fis g fis |
  fis g fis e d cis |
  %4
  d b a g fis e |
  d4. fis'8 g fis |
  fis e d fis g fis |
  fis g fis e d cis |
  %8
  d b a g fis e |
  d8  d'[ e] fis e d |
  cis4 e8 fis e d |
  cis b a b a gis |
  %12
  a4. r4 cis8 |
  cis d cis cis d cis |
  cis4. fis8 e d |
  cis b a b a gis |
  %16
  a4. r4 cis8 |
  cis d cis cis d cis |
  cis4. fis8 e d |
  cis b a b a gis |
  %20
  a4. r4 r8 |
  a4. cis8 d cis |
  cis b a cis d cis | % the last eighth was b in manuscript
  cis d cis b a gis |
  %24
  a4. r4 r8 |
  fis'4. dis8 e fis |
  fis4. dis8 e fis |
  fis e dis fis e dis |
  %28
  e4. r4 r8 |
%page 21
  e4. cis8 d e |
  e4. cis8 d e |
  e d cis e d cis |
  %32
  d4 fis8 fis e d |
  cis4 e8 e d cis |
  d e fis fis e d |
  cis4. r4 r8 |
  %36
  d,4. fis'8 g fis |
  fis e d fis g fis |
  fis g fis e d cis |
  d4 fis,8 a a a |
  %40
  g fis g b4 b8 |
  a b cis e4 e8 |
  d e fis g fis e |
  d4 fis,8 a4 a8 |
  %44
  g fis g b4 b8 |
  a b cis e4 e8 |
  d e fis g fis e |
  d4 a8 d4 a8 |
  %48
  fis d' a fis a fis |
  d d' a fis a fis |
  d2.
  \bar "|."
}
