\version "2.19.49"
dessus = {
	\relative c'''{
	\clef french
	\time 3/4
	\key f \major
		{
		bes8^\markup{\tiny{Il faut joüer cecy avec des
		Sourdines.}}_\markup{PRELUDE.} a bes a g fis
		g a g fis g a
		fis4. fis8 g a
		d,8. d16 b8. b16 c8 d
		g, a bes c d bes
		es f es d es f
		d2 d8. c16
		g'8 f g f e d
		cis4. cis8 d e
		a,4 f'8. f16 f8 g
		e f e f g a
		fis8. a16 a8 a g fis
		g d g f g d
		es d es d c bes
		a4 fis8 fis g a
		g d' d c d a
		bes c d e f d
		g4 g8 f es8. d16
		d4 bes'8 a g f
		es d c bes a8. g16
		g4 g4. bes8
		a4 a d
		d2 d8 bes
		g4. g8 c c
		a4 a4. d8
		bes bes c d es d
		c2 d8 d
		bes4 bes4. bes8
		c g a bes c a
		bes8. c16 a4. bes8
		bes8 d c d es d
		c f es d c bes
		a4 f' f
		f f f
		f2~ f8 f
		es d c4. bes8
		bes4. f'8
		bes a
		g4. g8 f g
		es4 es f
		d4. d8 es es
		c c b c b8. c16
		c8 es d es f es
		d g f es d c
		b4 g' g
		g g g
		g2~ g8 g
		f es d4. c8
		c d es f g a
		bes4. bes8
		a8. g16
		f4 f4. g8
		e2 f4
		e4. e8 e d
		cis4. d8 cis d
		e4 f4. f8
		e f e d e cis
		f g f e d f
		cis d cis4. d8
		d f e f g f 
		e a g f e d
		cis4 a' a
		a a a
		a2~ a8 a
		g f e4. d8
		d2 d4
		bes'4. bes8 g4
		bes a4. g8
		f2 f4
		bes8 a g a g f
		e f e d cis e
		d4 cis4. cis8
		d2 g4
		g4. f8 es d
		c a bes4. bes8
		a4 d4. d8
		c d c bes c a
		d es d c bes d
		a bes a4. bes8
		bes bes a bes c bes 
		a d c bes a g 
		fis4 d' d
		d d d
		d2~ d8 d
		c bes a4~ a8. g16
		g2.
		g4 a4. bes8
		fis4 bes4. bes8
		a bes a g a fis
		bes c bes a g bes
		fis g fis4. g8
		g2.
		\bar"|."
		}
	}
	}
