\version "2.19.49"
Renaud = {
	\relative c'{
	\clef alto
	\time 2/2
	\key f \major
		{
		R2.*20
		r4 bes g
		d' d a 
		bes r bes 
		es4. es8 es es
		c4 c r8 f
		g f es d c bes
		a2 f'8 d
		g4 g4. bes8
		es,4 c4. c8
		d4 c4. bes8
		bes4 r r
		R2.*4
		r4 r r8 f'
		f f d4. d8
		es4. g8 d4
		es c d
		b b8 g' g g
		as g f es d4
		c r r
		R2.*5
		r4 es2
		d8 d d e f4
		f8 a d,4 d8 e
		cis2 a'4
		g4. g8 g f
		e a e f e d
		cis4 a' a
		a a4. a8
		a2 r8 a
		g f e4. d8 
		d2 r4
		R2.*4
		r4 r a'8 a
		fis4 fis d
		g4. g8 e4
		f4 f e
		f f a
		g4. f8 e d
		cis4. d8 e4
		f e4. a8
		fis4 fis d8 d
		es2.
		es8 es d4. es8
		c4 f f
		f f f 
		f2 r8 f
		es d c4. bes8
		bes4 r r
		R2.*4
		r4 r d8 a
		bes2 r4
		es8 d c4. bes8
		a4 d d
		d d d
		d2 r8 d
		c bes a4. g8
		g2.
		\bar "|."
		}
	}
	}
	
RenaudL = \lyricmode{
	Plus j'ob -- ser -- ve ces lieux, et plus je les ad -- mi -- re. Ce Fleu
	-- ve cou -- le len -- te -- ment, Et s'é -- loigne à re -- gret
	d'un se -- jour si char -- mant. Les plus ai -- ma -- bles fleurs et le
	plus doux ze -- phi -- re Par -- fu -- ment l'air qu'on y re -- spi --
	re. Non, je ne puis quit -- ter des ri -- va --ges si beaux. Un son har
	-- mo -ni -- eux se mesle au bruit des eaux. Un son har -- mo -- ni --
	eux se mesle au bruit des eaux. Les Oy -- seaux en -- chan -- tez se tai
	-- sent pour l'en -- ten -- dre. Des char -- mes du som -- meil j'ay
	peine à me def -- fen -- dre. Ce ga -- zon, cét om -- bra -- ge frais,
	Tout m'in -- vite au re -- pos sous ce feül -- lage es -- pais. Ce ga --
	zon, cét om -- bra -- ge frais; Tout  in -- vite au re -- pos Sous
	ce feüil -- lage es -- pais. 
	}
