\version "2.19.49"
% clairnote-type = sn
\include "clairnote.ly"
\language "english"

\header {
    composer	        =       "Czerny, C."
    mutopiacomposer     =       "CzernyC"

    title	            =	"160 Eight-Measure Exercises"
    mutopiatitle        = "160 Eight-Measure Exercises, No. 19"

    opus	            =	"Op. 821"
    mutopiaopus         = "Op. 821, No. 19"
    
    source            =	"IMLSP; Leipzig: Edition Peters, n.d.[1888]. Plate 6990-6993."
    style             =	"Technique"
    license          =	"Public Domain"
    maintainer	        =	"Manuel Castejon Limas"
    maintainerWeb       =	"https://github.com/mcasl/Czerny"
    mutopiainstrument   =       "Piano"

 footer = "Mutopia-2015/12/07-2085"
 copyright = \markup { \vspace #1.8 \sans \abs-fontsize #7.5 \wordwrap {Sheet music in \with-url \clairnoteTypeUrl { \clairnoteTypeName music notation}  published by Paul Morris using \with-url #"http://www.lilypond.org" {LilyPond.} Original typesetting by \maintainer for the \with-url #"http://www.mutopiaproject.org" {Mutopia Project.} Placed in the \with-url #"http://creativecommons.org/publicdomain/zero/1.0/" {public domain} by the typesetter. Free to distribute, modify, and perform.}}
 tagline = ##f
}

%--------Definitions
exerciseNumber = "19."

mbreak = {  }
upperStaff =   { \tempo "Allegretto animato"
\clef treble \key d \major \time 3/4 
\times 2/3 { <fs'' a''>8^.^3^5 <fs'' a''>^. <fs'' a''>^.}  
\override TupletNumber #'stencil = ##f
\times 2/3 { <fs'' a''>8 ( <e'' g''> <d'' fs''>^1^3 )}
\times 2/3 { <d'' fs''>8^.^2^4 <d'' fs''>^. <d'' fs''>^.}       | % 1

\times 2/3 { <e'' g''>8^.^3^5 <e'' g''>^. <e'' g''>^.}  
\times 2/3 { <e'' g''>8 ( <d'' fs''> <cs'' e''>^1^3 )}
\times 2/3 { <cs'' e''>8^.^2^4 <cs'' e''>^. <cs'' e''>^.}       | % 2

\times 2/3 { <d'' fs''>8^.^1^3 <e'' g''>^. <fs'' a''>^.}  
\times 2/3 { <fs''a''>8 ( <e'' g''> ) <e'' g''>^. }
\times 2/3 { <e'' g''>8^. ( <d'' fs''> ) <d'' fs''>^.}          | % 3

\times 2/3 { <cs'' e''>8^.^3^5 <a' cs''>^. <b' d''>^.}
\times 2/3 { <bs' ds''>8^.^1^3 <cs'' e''>^. <d'' f''>^.^1^3}
\times 2/3 { <ds'' fs''>8^. <e'' g''>^.^1^3 <es'' gs''>^.}      | % 4

<fs'' a''>8^3^5 r8 <a'' d'''>^2^5 r8 r4                           | % 5

<a'' cs'''>8^1^2 r8 \ottava 1 <a'' e''' g'''> r8 r4                | % 6

\times 2/3 { <d '''fs'''>8^.^1^3 <e''' g'''>^. <fs''' a'''>^. }
\times 2/3 { <b'' e'''>8^.^1^3 <ds''' fs'''>^. <e''' g''' >^. }
\times 2/3 { <a'' cs'''>8^.^1^3 <b'' d'''>^. <cs''' e'''>^. }   \ottava 0 | % 7

\times 2/3 { d'''8^.^5 a''^.^3 fs''^.^2}
\stemDown \times 2/3 { d''8^.^1 a'^.^3 fs'^.}
\stemNeutral d'8 r8                                                               | % 8

\bar "|." 
}

lowerStaff =  {
\clef bass \key d \major \time 3/4
d8 r8 d'8 r8 r4  | % 1

a,8 r8 a8 r8 r4  | % 2

<d a>8_3 r8 <cs a> r8 <d a> r8 | % 3

<a, a>8 r8 r4 r4 \clef "treble" | % 4

\tupletDown
\times 2/3 { <fs' a'>8_.^3^1 <fs' a'>_. <fs' a'>_.}  
\override TupletNumber #'stencil = ##f
\times 2/3 { <fs' a'>8 ( <e' g'> <d' fs'>^5^3 )}
\times 2/3 { <d' fs'>8_.^4^2 <d' fs'>_. <d' fs'>_.}   | % 5

\times 2/3 { <e' g'>8_. <e' g'>_. <e' g'>_.}  
\times 2/3 { <e' g'>8 ( <d' fs'> <cs' e'>^5^3 )}
\times 2/3 { <cs' e'>8_.^2^4 <cs' e'>_. <cs' e'>_.}  | % 6

<d' fs'> r8 <g b e'> r8 <a e' g'> r8 | % 7

<d' fs'>8 r8 \clef "bass" d8 r8 r4   | % 8

\bar "|."
}

%-------Typeset music and generate midi

pdolce = #(make-dynamic-script (markup #:dynamic "p" #:text #:italic "dolce" ) )
dynamics = {
  <>-\pdolce s2.       | % 1
}
pedal = {
}
\score {
  \new PianoStaff = "PianoStaff_pf" <<
    \set PianoStaff.instrumentName = \markup \huge \bold \exerciseNumber 
    \new Staff    = "Staff_pfUpper" << \upperStaff >>
    \new Dynamics = "Dynamics_pf" \dynamics
    \new Staff    = "Staff_pfLower" << \lowerStaff >>
    \new Dynamics = "pedal" \pedal
  >>
  \layout { }
}
\score {
  \new PianoStaff = "PianoStaff_pf" <<
    \set PianoStaff.midiInstrument = "acoustic grand"
    \new Staff = "Staff_pfUpper" << \upperStaff \dynamics \pedal >>
    \new Staff = "Staff_pfLower" << \lowerStaff \dynamics \pedal >>
  >>
  \midi { \tempo 4 = 110 }
}
