\version "2.19.49"

IBasso =  \relative c {
  \clef "bass"
  \key g\major
  \time 4/4

  \set Score.skipBars = ##t

  %1 page 2
  g4 r8 g d'4 d, |
  g r16 g b g d'4 d, |
  g8 g' g, b c4 c |
  c8 c' c, c' c, c' c, c' |
  b,4 b b8 b' b, b' |
  b, b' b, b' a, a' fis e |
  %7
  d d' d, d' d, d' d, d' |
  g,4 e8 c b g' fis fis |
  e e b b c d e d |
  c c cis cis d d' c! c,? |
  b b b b c c d d |
  g, g' b g c, c c d |
  e4 r8 e e2 |
  %14
  d8 e fis d g g, b g |
  c e d d, g4 e'8 c |
  b16 g' fis e d c b a g8 g' d b |
  c d es d cis cis d c |
  b! c d fis g f e es |
  d c! b g c4 d |
  g, r8 g' g,4 r |
  %21
  R1*28 |
  %49
  r2 r8 d' d' d, |
  a'4 a, d r |
  a' d, a d16 e fis g |
  a4 a, d r8 fis |
  g g g g g g g g |
  fis fis fis fis fis fis fis fis |
  %55
  e e e e a a a, a |
  d4 r d r |
  g b16 a g fis g a b g a8 a, |
  d d' d,16 d' cis d g,, g' fis g a g fis e |
  d8 d'16 d, d8 d d16 d' cis b a g fis e |
  d4 r r2 |
  %61
  R1*20
  %81
  r2 r8 r16 a' d c b a |
  g8 g, r4 d' d |
  g, r8 g d'4 d |
  g,8 g' g, b c c c c |
  c c' c, c' c, c' c, c' |
  %86
  b,4 b b8 b' b, b' |
  b, b' b, b' a, a' fis d |
  d d' d, d' d, d' d, d' |
  g,4 c, d d'16 c bes a |
  g2 fis!8 fis fis,4 |
  f'2 e!8 e e,4 |
  %92 page 3
  es'2 d8 d fis! d |
  g r es r d r fis! r |
  g r es r d4 r |
  r8 d es cis d d' d, d' |
  d,4 r8 d g,4 r |
  %97
  R1*4 |
  %101
  r4 d''16 c b a g4 r8 b, |
  c c' b b a a a a |
  b b a a g g g g |
  a a g g fis fis fis fis |
  g4 c, d8 d' b g |
  c,4 d e fis |
  %107
  g r8 g c,4 d |
  e fis g fis |
  e r8 c  b[ cis]  d[ fis] |
  g b, c! d g4 fis |
  e d8 c b cis d fis |
  g g, d' d, g g'16 a bes8 g |
  c c c c bes bes bes bes |
  %114
  a a g g d d' c bes |
  c c c c bes bes bes bes |
  c c d d, g4 b,!8 cis |
  d4 a'8 a, d4 e8 fis |
  g4 d8 d, g4 g |
  g g d' e8 fis |
  %120
  g4 d g, g |
  g b8 cis d4 e8 fis |
  g4 d g, r |
  r8 c' d d, g4 r8 g, |
  d'4 d g, r8 g |
  d'4 d g,8 g' g, g' |
  %126
  g,16 g' fis g g, g' fis g g, g' fis g g, g' fis g |
  d8 d d d d4 d'16 c b a |
  g8 g fis fis e e b b |
  c d e d c c cis cis |
  d d' cis cis, b b b b |
  c c d d g, g' b g |
  %132
  c c, c d e4 r8 e |
  e2 d16 e fis g a g fis e |
  d8 e fis d g g, b g |
  c e d c b4 r |
  g r d' d, |
  %137
  g8 g'16 g, g8 g g4 r^\fermata \bar "|."
}

