\version "2.19.49"

% toggles tuplet spanner duration
six = \set Staff.tupletSpannerDuration = #(ly:make-moment 1/2)
three = \set Staff.tupletSpannerDuration = #(ly:make-moment 1/4)

IIMand =  \relative c''' {
  \clef "treble"
  \key c\major
  \time 2/2

  % end beams on quarters by default

  %1 page 11
  \six \tuplet 6/4 { c8[ g e c g e]} \three \tuplet 3/2 {c c c c c c} |
  \six \tuplet 6/4 { c''[ a f c a f]} \three \tuplet 3/2 {c c c c c c} |
  \six \tuplet 6/4 { c''[ g e c g e]} \three \tuplet 3/2 {c c c c c c} |
  \six \tuplet 6/4 { f'[ d b f d b]} \three \tuplet 3/2 {g g g g g g} |
  %5
  \tuplet 3/2 {c c c c' c c e e e g g g |
  d d d g g g b b b d, d d |
  c c c fis fis fis a a a c, c c |
  b g g g, g' g g, f'! f g, f' f |
  g, e' e g, e' e g, d' d g, d' d |
  g, c c g c c g b b g b b} |
  %11
  g4 r \tuplet 3/2 {g''8 f e d c bes |
  a gis a a gis a a b! c d e f} |
  \six \tuplet 6/4 { e[ g f e d c]  d[ f e d c b]} |
  \three c4. es16 d  c8.[ bes16 as8. g16] |
  fis4. d'16 c  b!8.[ a!16 g8. f16] |
  \tuplet 3/2 {e8 g bes a c f e g c, d f b, |
  c e g g e e e c c c g g |
  %18 Note: One group of three c:s are missing in the original.
  g e e e c c c c c c c c} |
  <e' c e, a,>2 r2^\fermata |
  \six \tuplet 6/4 { c8[_"Solo" d e e fis g]  g[ fis e d c b]} |
  \three \slashedGrace d \tuplet 3/2 {c b c} \slashedGrace d \tuplet 3/2 {c b c}
    \slashedGrace a' \tuplet 3/2 {g f e d c bes |
  a gis a a b! c d e f} \slashedGrace g \tuplet 3/2 {f e d} |
  \slashedGrace d \tuplet 3/2 {c b c} \slashedGrace d \tuplet 3/2 {c b c c d e e d c |
  d fis d d fis a g b a g fis! e |
  c e c c e g fis a g fis c a} |
  %26
  <b d, g,>4 \tuplet 3/2 {b8 c d d e f!} \slashedGrace g \tuplet 3/2 {f e dis |
  e dis e e fis g a b a g fis g} |
  \slashedGrace g \tuplet 3/2 {fis e d} d,4 \tuplet 3/2 {g'8 d b} <d, g,>4 |
  \tuplet 3/2 {a''8 fis c} d,4 \tuplet 3/2 {b''8 g d} g,,4 |
  \tuplet 3/2 {c''8 a fis c a fis d e d c b c} |
  b4 \tuplet 3/2 {b'8 c d e fis g a, b c |
  d e fis g, a b c e d c b a} |
  \tuplet 3/2 {<b g'> q q q q q q q q q q q} |
  \tuplet 3/2 {<b g'> b' a g fis e d e d c b c} |
  %35
  \six \tuplet 6/4 { b[ d c \grace c b a g]  a[ c b \grace b a g fis]} |
  \three \tuplet 3/2 {<g' d b> d b g d b} <g'' b, d, g,>4 <g b, d, g,> |
  \tuplet 3/2 {g8 e c g e c} <e' c e, g,>4 <e c e, g,> |
  \tuplet 3/2 {g8 d b g d b} <g'' b, d, g,>4 <g b, d, g,> |
  \tuplet 3/2 {c8 a fis c a fis} <fis' a, d,>4 <fis a, d,> |
  %40
  <g b, d,> \tuplet 3/2 {b,8 c d e fis g a, b c |
  d e fis g, a b c d e fis, g a |
  b c d d e fis g fis e d c b |
  b g b} a4 r2 |
  \tuplet 3/2 {bes8 bes bes bes bes bes cis cis cis cis cis cis |
  d d d d d d a a a a a a |
  a a a a a a g g g e e e |
  a d cis d a fis} d4 r^\fermata |
  %48 page 12
  \tuplet 3/2 {g'8 d c b a g} <e' c e, g,>4 \tuplet 3/2 {g8 fis e} |
  <g b, d,>4 \tuplet 3/2 {g8 d b} <a' c, d,>4 \tuplet 3/2 {c,8 b a |
  b d c b a g e' g fis g fis e} |
  \six \tuplet 6/4 { d[ e fis? g a b]  c,[ a' g fis! d c]} |
  \three \tuplet 3/2 {b g d} g,4 r2 |
  c'4 \tuplet 3/2 {es8 d c} d4 \tuplet 3/2 {f8 es! d} |
  es4 \tuplet 3/2 {es8 f g as g f es d c} |
  d4 \tuplet 3/2 {d8 es f g f es d c b!} |
  c4 \tuplet 3/2 {c8 d es f es d d c b!} |
  %57
  b4 \tuplet 3/2 {d8 c b!} \slashedGrace b c4 \tuplet 3/2 {es8 d c} |
  \grace cis d4 \tuplet 3/2 {f8 es d es f g as g f |
  f es d d c b! b a g} g,4 |
  \tuplet 3/2 {<e'' c e,>8 e e <e c e,> e e <e c e,> e e <e c e,> e e |
  %61 Note: The last f looks quite much like a g in the manuscript
  e, g c a c f e g c, d f b, |
  c b a a g fis c' b a a g fis |
  d' c b d e f! f e d d c b} |
  %64
  \six \tuplet 6/4 { e[ g f e d c]  d[ f e d c b]} |
  \three \tuplet 3/2 {c e c c g e c c c c c c |
  c'' a f c a f c c c c c c |
  c'' g e c g e c c c c c c |
  f' d b f d b d d d d d d} |
  <e c>4 \tuplet 3/2 {g'8 e bes a f' e d c b} |
  %70
  c4. es16 d  c8.[ bes16 as8. g16] |
  fis4. d'16 c  b!8.[ a!16 g8. f16] |
  \tuplet 3/2 {e8 g bes a c f e g c, d f b,? |
  c( e  g) g( e  e) e( c  c) c( g  g) |
  g e e} \tuplet 3/2 {<e g,> q q q q q q q q} |
  %75
  <e' c e, g,>2 r2^\fermata \bar "|."
}
