#(set-global-staff-size 15.5) 

\version "2.19.49" 
% clairnote-type = sn
\include "clairnote.ly"

global = { \key a \major \time 3/4 \tempo \markup {Andante "  " \italic {In gehender Bewegung}} } 

SFerne = \relative a' { 
\revert Rest.direction 
\partial 4 
a8\mp\< b\! cis4. a8 a fis fis8.[\> e16] e4\! 
e8\< a\! b4. a8 d8. cis16 b2 
b8.\mf fis16 a8.[ gis16] gis4 
b8. fis16 a8.[\> gis16] gis4\! r 
\set crescendoText = \markup { \italic " poco cresc." } 
\set crescendoSpanner = #'text 
a8.\p\< e16 \acciaccatura gis8 fis e a b\! \crescHairpin cis4(\< e\> d)\! 
\override Hairpin.to-barline = ##f 
cis8.^\markup{\large\italic{dolce}} cis16 cis8\dim a cis b\> a2\! 
\bar "|." 
} 

AFerne = \relative a' { 
\partial 4 
a8 a a4. e8 fis d d8.[ cis16] cis4 
e8 e e4. e8 gis8. a16 gis2 
fis8. fis16 fis8.[ e16] e4 
dis8. fis16 fis8.[ e16] e4 s 
e8. e16 fis8 e cis e a2( fis4) 
e8. a16 a8 e gis gis e2 
\bar "|." 
} 

TFerne = \relative a { 
\partial 4 
cis8 d e4. cis8 d a a4 a 
a8 a gis4. a8 e'8. e16 e2 
dis8. dis16 b4 b 
b8. dis16 b4 b 
d4( cis8.) a16 a8 a a gis a2( b4) 
cis8. e16 e8 cis e d cis2 
\bar "|." 
} 

BFerne = \relative a { 
\partial 4 
a8\mp\< a\! a4. a8 d, fis a4\> a,\! 
cis8\< cis\! d4. cis8 b8. a16 e'2 
b'8.\mf b16 e,4 e 
b8. b'16 e,4\> e4\! r 
\set crescendoText = \markup { \italic " poco cresc." } 
\set crescendoSpanner = #'text 
a,8.\p\< cis16 d8 cis fis e\! \crescHairpin a,4(\< cis\> d)\! 
\override Hairpin.to-barline = ##f 
e8._\markup{\large\italic{dolce}} e16 e8\dim e e e\> a2\! 
\bar "|." 
} 


LFerneA = \lyricmode { 
\set stanza = "1." 
Nun leb wohl, du klei -- ne Gas -- se, 
nun a -- de du stil -- les Dach! 
Va -- ter, Mut -- ter sahn mir trau -- rig, 
und die Lieb -- ste sah mir nach, __ 
und die Lieb -- ste sah mir nach. 
} 

LFerneB = \lyricmode { 
\set stanza = "2." 
Hier in wei -- ter, wei -- ter Fer -- ne, 
wie's mich nach der Hei -- mat zieht! 
Lus -- tig sin -- gen die Ge -- sel -- len, 
doch es ist ein fal -- sches Lied, __ 
doch es ist ein fal -- sches Lied. 
} 

LFerneC = \lyricmode { 
\set stanza = "3." 
And -- re Städt -- chen kom -- men frei -- lich, 
and -- re Mäd -- chen zu Ge -- sicht; 
ach, wohl sind es and -- re Mäd -- chen, 
doch die ei -- ne ist es nicht, __ 
doch die ei -- ne ist es nicht. 
} 

LFerneD = \lyricmode { 
\set stanza = "4." 
And -- re Städt -- chen, and -- re Mäd -- chen, 
ich da mit -- ten drin so stumm! 
And -- re Mäd -- chen, and -- re Städt -- chen, 
o, wie ger -- ne kehrt ich um, __ 
o, wie ger -- ne kehrt ich um. 
} 

%--------------------

\header { 
 kaisernumber = "225" 
 comment = "" 
 footnote = "" 
 
 title = "In der Ferne" 
 subtitle = "" 
 composer = "Friedrich Silcher (1789–1860), 1855" 
 opus = "" 
 arranger = "Friedrich Ernst Koch (1862–1927)" 
 poet = "Albert Graf Schlippenbach (1800–1886), 1833" 
 
 mutopiatitle = "In der Ferne" 
 mutopiacomposer = "SilcherF" 
 mutopiapoet = "A. Schlippenbach (1800–1886)" 
 mutopiaopus = "" 
 mutopiainstrument = "Choir (SATB)" 
 date = "1855" 
 source = "Leipzig : C. F. Peters, 1915" 
 style = "Romantic" 
 license = "Creative Commons Attribution 4.0" 
 maintainer = "Klaus Rettinghaus" 
 lastupdated = "2014/March/01" 
 
 footer = "Mutopia-2014/03/23-732"
 copyright = \markup { \vspace #1.8 \sans \abs-fontsize #7.5 \wordwrap {Sheet music in \with-url \clairnoteTypeUrl { \clairnoteTypeName music notation}  published by Paul Morris using \with-url #"http://www.lilypond.org" {LilyPond.} Original typesetting by \maintainer for the \with-url #"http://www.mutopiaproject.org" {Mutopia Project.} Licensed under \with-url #"http://creativecommons.org/licenses/by/4.0/" {Creative Commons Attribution 4.0.} Free to distribute, modify, and perform.}}
 tagline = ##f
} 

\score {
{
\context ChoirStaff 
	<< 
	\context Staff = women 
	<< 
	\set Staff.midiInstrument = "voice oohs" 
			\clef "G" 
			\context Voice = Sopran { \voiceOne 
				<< 
				\autoBeamOff 
				\dynamicUp 
				{ \global \SFerne } 
				>> } 
			\context Voice = Alt { \voiceTwo 
 				<< 
				\autoBeamOff 
				\dynamicDown 
				{ \global \AFerne } 
				>> } 
			>> 
	\context Lyrics = verseone 
	\context Lyrics = versetwo 
	\context Lyrics = versethree 
	\context Lyrics = versefour 
	\context Staff = men 
	<< 
	\set Staff.midiInstrument = "voice oohs" 
			\clef "F" 
			\context Voice = Tenor { \voiceOne 
				<< 
				\autoBeamOff 
				\dynamicUp 
				{ \global \TFerne } 
				>> } 
			\context Voice = Bass { \voiceTwo 
				<< 
				\autoBeamOff 
				\dynamicDown 
				{ \global \BFerne } 
				>> } 
		>> 
	\context Lyrics = verseone \lyricsto Sopran \LFerneA 
	\context Lyrics = versetwo \lyricsto Sopran \LFerneB 
	\context Lyrics = versethree \lyricsto Sopran \LFerneC 
	\context Lyrics = versefour \lyricsto Sopran \LFerneD 
	>> 
}

\layout {
indent = 0.0\cm
\context {\Score 
\remove "Bar_number_engraver"
\override DynamicTextSpanner.style = #'none 
\override BreathingSign.text = #(make-musicglyph-markup "scripts.rvarcomma") 
}
}

\midi {
\tempo 4=66
}

}
