\version "2.19.49"
% clairnote-type = sn
\include "clairnote.ly"

\header {
    composer	      =	"Czerny, C."
    mutopiacomposer   = "CzernyC"

    title	        =	"160 Eight-Measure Exercises"
    mutopiatitle        = 	"160 Eight-Measure Exercises, No. 1"

    opus	        =	"Op. 821"
    mutopiaopus         = 	"Op. 821, No. 1"
    
    source        	=	"IMLSP; Leipzig: Edition Peters, n.d.[1888]. Plate 6990-6993."
    style         	=	"Technique"
    license       	=	"Public Domain"
    maintainer	        =	"Manuel Castejon Limas"
    maintainerWeb       =	"https://github.com/mcasl/Czerny"
    mutopiainstrument   = "Piano"

 footer = "Mutopia-2015/11/06-2060"
 copyright = \markup { \vspace #1.8 \sans \abs-fontsize #7.5 \wordwrap {Sheet music in \with-url \clairnoteTypeUrl { \clairnoteTypeName music notation}  published by Paul Morris using \with-url #"http://www.lilypond.org" {LilyPond.} Original typesetting by \maintainer for the \with-url #"http://www.mutopiaproject.org" {Mutopia Project.} Placed in the \with-url #"http://creativecommons.org/publicdomain/zero/1.0/" {public domain} by the typesetter. Free to distribute, modify, and perform.}}
 tagline = ##f
}


%--------Definitions
global = {
  \key c \major
  \time 4/4
}

exerciseNumber = "1."

upperStaff =   { \tempo "Allegro"
         <e''-3 >16 <g''-5 >16 f'' g'' <e''-3 >16 f'' <d''-2 >16 e'' <c''-1 >16 <c'''-5 >16 b'' c''' <a''-3 >16 b'' <g''-2 >16 a''		| %1
         <f''-1 >16 <a''-5 >16 g'' a'' <f''-3 >16 g'' e'' f'' d'' <f''-5 >16 e'' f'' <d''-3 >16 e'' c'' d''					| %2
         <b'-1 >16-\cresc <d''-5 >16 c'' d'' <b'-3 >16 c'' a' b' <g'-1 >16 <b'-5 >16 a' b' g' a' f' g'						| %3
         <e'-1 >16 <g'-5 >16 f' g' e' f' d' e' <c'-1 >16 <e'-5 >16 d' e' c' d' b c'                                         | %4
        <>  \f <a-1 >16 <d'-3 >16 cis' <e'-4 >16 <d'-1 >16 f' e' <g'-4 >16 <f'-1 >16 a' gis' <b'-4 >16 <a'-1 >16 <d''-3 >16 cis'' <e''-4 >16 	| %5
         <d''-1 >16 f'' e'' <g''-4 >16 <f''-1> a'' gis'' <b''-4> \ottava #1  <a''-1>16 d''' cis''' <e'''-4> <d'''-1> e''' f''' d'''					| %6
         <a'''-5> g'''! f''' e''' \ottava #0  <d'''-1 >16 <c'''-3 >16 b'' a'' <g''-4 >16 f'' e'' d'' <c''-3 >16 b' a' b'				| %7
         c'' d'' c'' b' <c''-1 >16 e'' g'' c''' c''8-\staccato r8 r4  								        \bar "|." %8
}

lowerStaff =  {
  \clef treble
         <c' g'>4 r <e' g'> r           | %1
         <d' a'> r \clef bass <f a> r   | %2
         <g d'> r <b, d g> r            | %3
         <g c> r <e g> r                | %4
         <f, a, d> r r2                 | %5
         <f a d'>4 r r2                 | %6
         <g c' e'>4 r <g d' f'> r       | %7
         <c' e'> r r2           \bar "|." %8    
}

%-------Typeset music and generate midi
\score {
    \context PianoStaff <<
        \set PianoStaff.midiInstrument = "acoustic grand"
        \set PianoStaff.instrumentName = \markup \huge \bold \exerciseNumber  
        \new Staff = "upper" { \clef treble \global \upperStaff }
        \new Staff = "lower" { \clef bass   \global \lowerStaff }
    >>
    \layout{ }
    \midi  { \tempo 4 = 110 }
}
