\version "2.19.49"
% clairnote-type = sn
\include "clairnote.ly"

\paper {
    top-margin = 8\mm
    top-markup-spacing.basic-distance = #6
    markup-system-spacing.basic-distance = #10
    top-system-spacing.basic-distance = #12
    last-bottom-spacing.basic-distance = #12
    indent = 0.0
    line-width = 18.0\cm
    ragged-bottom = ##f
    ragged-last-bottom = ##f
}

% #(set-default-paper-size "letter")

#(set-global-staff-size 19)

\header {
        title = "Clavierübung Vierter Teil Aria mit 30 Veränderungen"
        subtitle = "\"Goldberg Variationen\""
        piece = "Variatio 23. a 2 Clav."
        mutopiatitle = "Goldberg Variations - 23"
        composer = "Johann Sebastian Bach (1685-1750)"
        mutopiacomposer = "BachJS"
        opus = "BWV 988"
        date = "1741"
        mutopiainstrument = "Harpsichord,Clavichord"
        style = "Baroque"
        source = "Bach-Gesellschaft Edition 1853 Band 3"
        license = "Creative Commons Attribution-ShareAlike 3.0"
        maintainer = "Hajo Dezelski"
        maintainerEmail = "dl1sdz (at) gmail.com"

 footer = "Mutopia-2014/07/27-1418"
 copyright = \markup { \vspace #1.8 \sans \abs-fontsize #7.5 \wordwrap {Sheet music in \with-url \clairnoteTypeUrl { \clairnoteTypeName music notation}  published by Paul Morris using \with-url #"http://www.lilypond.org" {LilyPond.} Original typesetting by \maintainer for the \with-url #"http://www.mutopiaproject.org" {Mutopia Project.} Licensed under \with-url #"http://creativecommons.org/licenses/by-sa/3.0/" {Creative Commons Attribution-ShareAlike 3.0} Free to distribute, modify, and perform.}}
 tagline = ##f
}

%%------------- definitions
posBeamA = \once \override Beam.positions = #'(0.7 . 0.7)
posBeamB = \once \override Beam.positions = #'(0 . 0)
posBeamC = \once \override Beam.positions = #'(-0.2 . -0.2)
doKneedBm = \once \override Beam.auto-knee-gap = #1
ignoreClash = \temporary \override NoteColumn.ignore-collision = ##t

%---------Pavel's snippet from LSR to change clef at beginning of staff
% Append markup in the text property to the grob
#(define (append-markup grob old-stencil)
  (ly:stencil-combine-at-edge
    old-stencil X RIGHT (ly:text-interface::print grob)))

bassToTreble = {
  \clef treble
  % Fake staff clef appearance
  \once \override Staff.Clef.glyph-name = #"clefs.F"
  \once \override Staff.Clef.Y-offset = #1
  % Append change clef to the time signature
  \once \override Staff.TimeSignature.text = \markup {
    \hspace #1.2
    \raise #-1
    \musicglyph #"clefs.G_change"
  }
  \once \override Staff.TimeSignature.stencil = #(lambda (grob)
    (append-markup grob (ly:time-signature::print grob)))
}

sopranoOne =   \relative g' {
    \repeat volta 2 { %begin repeated section
        \stemNeutral
     	b8\rest g8 b'16 [ a g fis ] e [ d cis b ] | % 1
	a16 [ g fis8 ] a'16 [ g fis e ] d [ cis b a ] | % 2
	g16 [ fis e8 ] g'16 [ fis e d ] cis_[ b a g ] | % 3
	fis16 [ e d8 ] b'8\rest b16\rest e,32 [ fis32 ] g^[ a b cis d8 ~ ] | % 4
	\doKneedBm \posBeamC d8 [ b,16 c ] d [ e fis g ] a [ b c d ] | % 5
	\doKneedBm \posBeamB e8 [ c,16 d ] e [ fis g a ] b [ c d e ] | % 6
	\doKneedBm \posBeamA fis8 [ d,16 e ] fis [ g a b ] c [ d e fis ] | % 7
	g8 b,8\rest b16\rest fis'32 [ e d c b a ] g16 b16\rest b8\rest | % 8
	\stemUp r16 b'16 [ b ] b,16\rest b32\rest g'32_[ fis e d16 ] b16\rest b32\rest c32 [ b a g16 ] b16\rest | % 9
	r16 a'16 [ a ] b,16\rest b32\rest d32_[ cis b a16 ] b16\rest b32\rest g32 [ fis e d16 ] b'16\rest | % 10
	r16 g'16 [ g ] b,16\rest b32\rest c!32 [ b a g16 ] b16\rest b32\rest a32 [ g fis e16 ] b'16\rest | % 11
	r16 g'16 [ g ] b,16\rest b32\rest fis32 [ e d cis16 ] b'16\rest b32\rest d,32 [ cis b a16 ] b'16\rest | % 12
	\stemNeutral b16\rest a16 [ a' g ] fis [ e d c ] b [ a g fis ] | % 13
	b16 [ g fis e ] d [ c b a ] g [ b e d ] | % 14
	cis16 [ b a b ] cis [ d e fis ] g [ a b cis ] | % 15
	d16 [ cis32 b a g fis e ] d8 b'8\rest b4\rest | % 16
	\pageBreak
	} %end of repeated section

    \repeat volta 2 { %begin repeated section
		a'8 \prallmordent  b,16\rest g'16 \once \stemUp \grace { g16 } fis8  b,16\rest e16 \once \stemUp \grace { e16 } d8 b16\rest c16  | % 17
		b8 \prallprall b16\rest a16 \grace a16 g8 b16\rest fis16 \grace fis16 e8 \clef "bass" d,16\rest d'16 | % 18
		c8 d,16\rest  b'16 \once \stemUp \grace { b16 } a8 d,16\rest g16 \once \stemUp \grace { g16 } fis8 d16\rest e16 | % 19
		\once \stemUp \grace { e16 } dis8 d16\rest fis16 a8 d,16\rest c'16 b8 \prallprall d,16\rest a'16 | % 20
		g8 d8\rest \clef "treble" b''16\rest dis16 [ e fis ] g [ gis a b ] | % 21
		c16 [ a g f ] e [ d c b ] a [ g fis! e ] | % 22
		dis16_[ \once \stemUp \grace { d'!16 } c b8 ] b32\rest b32 [ cis dis e fis g16 ~ ] g [ fis e \prallprall dis ] | % 23
		e32^[ c b a b ] r32 r16 r32 fis32 [ e dis e ] s4 s16 s32 | % 24
		r16 e16 [ f g ] \stemUp a [ b c d ] e8 r8 | % 25
		r16 d16 [ c b ] a [ g fis e ] d8 r8 \clef "bass" | % 26
		r16 d16 r16 b16 r16 d16 r16 b16 r16 b16 r16 g16 | % 27
		r16 g16  r16 e16  r16 g16  r16 e16  r16 e16  r16 c16  | % 28
		r16 c16 r16 a16 r16 c16 r16 e16 r16 g16 r16 b16 | % 29
		r16 d16 r16 b16 r16 d16 r16 \clef "treble" fis!16 r16 a16 r16 c16 | % 30
		r16 cis16 [ d e ] fis [ g a b ] c!8 r8 | % 31
		r16 b16 [ a g ] fis [ e d c ] b8 r8  | % 32
    } %end repeated section
}

sopranoTwo =   \relative b' {
  \repeat volta 2 { %begin repeated section
	  \stemDown
	  s1*3/4 | % 1
	  s1*3/4 | % 2
	  s1*3/4 | % 3
	  s1*3/4 | % 4
	  s1*3/4 | % 5
	  s1*3/4 | % 6
	  s1*3/4 | % 7
	  s1*3/4 | % 8
	  r16 d16 [ d ] s16 s1*2/4 | % 9
	  r16 d16 [ d ] s16 s1*2/4 | % 10
	  r16 b16 [ b ] s16 s1*2/4 | % 11
	  r16 a16 [ a ] s16 s1*2/4 | % 12
	  s1*3/4 | % 13
	  s1*3/4 | % 14
	  s1*3/4 | % 15
	  s1*3/4 | % 16

    } %end of repeated section

    \repeat volta 2 { %begin repeated section
		s1*3/4 | % 17
		s1*3/4 | % 18
		s1*3/4 | % 19
		s1*3/4 | % 20
		s1*3/4 | % 21
		s1*3/4 | % 22
		s1*3/4 | % 23
		s8 s32 a32 [ g fis g ] s4 s8 s16 s32 | % 24
		r16 c,16 [ d e ] f! [ g a b ] c8 r8 | % 25
		r16 b16 [ a g ] fis [ e d c ] b8 r8 \clef "bass" | % 26
		r16 b16  r16 gis16 r16 b16 r16 g16 r16 g16 r16 e16 | % 27
		r16 e16 r16 cis16 r16 e16 r16 c16 r16 c16 r16 a16 | % 28
		r16 a16 r16 fis16 r16 a16 r16 c16 r16 e16 r16 g16 | %29
		r16 f16 r16 d16 r16 f16 r16 \clef "treble" a16 r16 c16 r16 e16 | % 30
		r16 a16 [ b cis ] d [ e fis g ] a8 r8 | % 31
		r16 d,16 [ c b ] a [ g fis e ] d8 r8 | % 32

    } %end repeated section
}

soprano = << \sopranoOne \\ \sopranoTwo>>

%%
%% Bass Clef
%%

bassOne = \relative g' {
	\repeat volta 2 { %begin repeated section
		\stemNeutral
		\bassToTreble \doKneedBm \posBeamA g8 [ b'16 a ] g [ fis e d ] cis_[ b a g ] | % 1
		\doKneedBm \posBeamB fis8 [ a'16 g ] fis [ e d cis ] b^[ a g fis ] | % 2
		\doKneedBm \posBeamC e8 [ g'16 fis ] e [ d cis b ] a^[ g fis e ] | % 3
		\stemNeutral d8 \clef "bass" d,16\rest c'32 [ b ] a [ g fis e d8 ] d8\rest d16\rest c16 | % 4
		b8 d8\rest \clef "treble" b'16 [ c d e ] fis [ g a b ] | % 5
		c16 [ d e8 ] c,16 [ d e fis ] g [ a b c ] | % 6
		d16 [ e fis8 ] d,16 [ e fis g ] a [ b c a ] | % 7
		b32 [ g a b c d e fis ] g16 d16\rest d8\rest d16\rest fis,32 [ e d c b a ] | % 8
		g8 b'16\rest a,16 b8 \prallmordent b'16\rest c,16 d8 \prallmordent b'16\rest e,16 | % 9
		fis8 \prallmordent b16\rest g16 a8 \prallmordent b16\rest b16 cis8 \prallmordent b16\rest d16 | % 10
		e8 \prallmordent b16\rest fis'16 g8 \prallmordent b,16\rest a'16  b8 b,16\rest d16 | % 11
		cis8 b16\rest e16 g,8 b16\rest b16 a8 \prallmordent b16\rest g16 | % 12
		fis8 b16\rest a,16 a' [ g fis e ] d [ c b a ] | % 13
		g16 [ b d c ] b [ a g fis ]  \clef "bass" e_[ d cis b ] | % 14
		a16 [ e' g fis ] e_[ d cis b ] a [ g fis e ] | % 15
		d4_~ d16 [ e32 fis g a b cis ] d8 b8\rest | % 16
    } %end of repeated section

    \repeat volta 2 { %begin repeated section
		\stemUp
		r16 d16[ d ] s16 s1*2/4 | % 17
		r16 g16 [ g ] s16 s1*2/4 | % 18
		r16 a'16 [ a ] s16 s1*2/4  | % 19
		r16 c'16 [ c ] s16 s1*2/4 | % 20
		b,16\rest e16_[ d! c ] b [ a g fis ] e [ d c b ] | % 21
		a8 b'8\rest b16\rest gis,16 [ a b ] c [ cis dis e ] | % 22
		fis8 \clef "bass" d,16\rest \stemNeutral a'16 g8 [ c8 ] a8 [ b8 ] | % 23
		e,8 r32 s4 c'32 [ b a b ] r32 r16 r32 f32 [ e d ] | % 24
		c8 d8\rest r16 \stemUp d'16 [ c b ] a [ g  fis  e ]  | % 25
		\ignoreClash d8 r8 r16 c16 [ d e ] fis [ g a b ] \undo \ignoreClash | % 26
		c8 [ c c c a a ] | % 27
		fis8 [ fis fis fis d d ] | % 28
		b8 [ b b d f a ] | % 29
		c8 [ c c \clef "treble" e g b ] | % 30
		d16 r16 r8 \clef "bass" r16 e,16 [ d c! ] b [ a g fis ] | % 31
		g16 [ b, c d ] e [ fis g a ] b8 r8 | % 32

    } %end repeated section
}

bassTwo = \relative d, {
    \repeat volta 2 { %begin repeated section
		\stemDown
		s1*3/4 | % 1
		s1*3/4 | % 2
		s1*3/4 | % 3
		s1*3/4 | % 4
		s1*3/4 | % 5
		s1*3/4 | % 6
		s1*3/4 | % 7
		s1*3/4 | % 8
		s1*3/4 | % 9
		s1*3/4 | % 10
		s1*3/4 | % 11
		s1*3/4 | % 12
		s1*3/4 | % 13
		s1*3/4 | % 14
		s1*3/4 | % 15
		s1*3/4 | % 16
    } %end of repeated section

    \repeat volta 2 { %begin repeated section
		r16 d16 [ d ] d'16\rest d32\rest e32 [ fis g a16 ] d,16\rest d32\rest a'32 [ b c32 d16 ] d,16\rest | % 17
		r16 g,16 [ g ] d'16\rest d32\rest \clef "treble" \stemNeutral d'32 [ e fis g16 ] b16\rest b32\rest fis32 [ g a b16 ] b16\rest | % 18
		r16 e,16_[ e ] b'16\rest b32\rest b32 [ c d e16 ] b16\rest b32\rest e32 [ fis g a16 ] b,16\rest | % 19
		r16 a'16 [ a ] b,16\rest b32\rest b'32 [ a g fis16 ] b,16\rest b32\rest g'32 [ fis e dis16 ] b16\rest | % 20
		s1*3/4 | % 21
		s1*3/4 | % 22
		s1*3/4 | % 23
		s2 s32 a,32 [ g fis g ]  s16 s32 | % 24
		s8 s8 r16 b16 [ a  g ] fis! [ e  d  c ] | % 25
		b8 r8 r16 a16_[ b c ] d [ e fis g ] | % 26
		a8 [ a a a fis fis ] | % 27
		\stemDown d8 [ d d d b b ] | % 28
		g8 [ g g b d f ] | % 29
		e8 [ e e g b d ] | % 30
		fis16 r16 r8 \clef "bass" r16 g,16 [ fis e ] d [ c b a ] | % 31
		g8 [ a16 b ] c [ d e fis ] g8 r8 | % 32

    } %end repeated section
}

bass = << \bassOne \\ \bassTwo>>

%% Merge score - Piano staff

\score {
    \context PianoStaff <<
        \set PianoStaff.midiInstrument = "harpsichord"
        \new Staff = "upper" { \clef treble \key g \major \time 3/4 \soprano  }
        \new Staff = "lower"  { \clef bass \key g \major \time 3/4 \bass }
    >>
    \layout{  }
    \midi { \tempo 4 = 85 }

}
