\version "2.19.49"

IIBasso =  \relative c {
  \clef "bass"
  \time 6/8
  \key d\minor

  \partial 8 r8 |
  %1 page 7
  d4. a | d r4 r8 | d f a a, e' a | d,4. bes' | g a | d,8 f a d,4 r8 |
  d4. a | d r4 r8 | d f a a, e' a | d,4. bes' | g a | d,8 f a d, f d |
  bes2. | g4. bes' | a a, | a a |
  %17 page 8
  a a | a a | a a | a a | d d | a' a, | d r4 r8 | cis?4. r4 r8 | d4. r4 r8 |
  %26
  a4. r4 r8 | d4. r4 r8 | g4. a | d, g | a a | a, a | d d | a a | a a |
  %35 page 9
  a a | d r4 r8 | a4. a | a a | a a | d g | a a, | d g | a a, |
  %44
  d r4 r8^\fermata \bar "|."
}
