\version "2.19.49"

IIMandI =  \relative c'' {
  \clef "treble"
  \time 6/8
  \key d\minor

  \partial 8 a8 |
  %1 page 7
  d f e e g f | f a g g bes a | a4. g | f8 a g f e d | e g f e d cis |
  d4. r8 r a, | d f e e g f | f a g g bes a | a4. g | f8 a g f e d |
  %11
  e g f e d cis | d4. r8 r a'' | a4.(  a4) g8 | bes a g f e d |
  cis a cis e cis e | cis a cis e cis e |
  %17 page 8
  d a d f d f | d a d f d f | e a, e' g a, g' | e a, e' g a, g' |
  f a g f e d | e g f e d cis | d d, e f e d | cis g'' a bes a g | 
  %25
  f, f' g a g f | e, e' f g f e | f, a' g f e d | d, g' f e d cis |
  d, d' c! bes a g | f a g f e d | d g f e d cis | d4 r8 a''4 d,8 |
  %33
  cis4 a8 g'4 e8 | f4 r8 a4 d,8 |
  %35 page 9
  cis4 a8 g' e cis | d4 r8 a4 d,8 | cis4 a8 g'4 e8 | f4 r8 a4 d,8 |
  cis4 a8 g' e cis | d4. bes'!8 bes bes | a a a cis cis cis |
  %42
  d4. bes!8 bes bes | a a a cis, d e | d4. r4 r8_\fermata \bar "|."
}

